{
    "roomStays": {
        "roomStay": [
            {
                "roomTypes": [
                    {
                        "roomType": {
                            "roomTypeCode": "STD2Q",
                            "numberOfUnits": "1",
                            "isRoom": "true"
                        }
                    }
                ],
                "ratePlans": [
                    {
                        "ratePlan": {
                            "ratePlanCode": "WI15L3",
                            "ratePlanId": "WI15L3",
                            "ratePlanName": "WI15L3"
                        }
                    }
                ],
                "roomRates": [
                    {
                        "roomRate": {
                            "numberOfUnits": "1",
                            "effectiveDate": "2020-08-16",
                            "expireDate": "2020-08-19",
                            "roomTypeCode": "STD2Q",
                            "ratePlanCode": "WI15L3",
                            "rates": [
                                {
                                    "rate": {
                                        "effectiveDate": "2020-08-16",
                                        "expireDate": "2020-08-19",
                                        "rateTimeUnit": "Day",
                                        "unitMultiplier": "3",
                                        "base": {
                                            "amountBeforeTax": "251.69",
                                            "amountAfterTax": "283.15",
                                            "currencyCode": "USD"
                                        },
                                        "total": {
                                            "amountBeforeTax": "755.07",
                                            "amountAfterTax": "849.45",
                                            "currencyCode": "USD"
                                        },
                                        "tpaExtensions": [
                                            {}
                                        ]
                                    }
                                }
                            ]
                        }
                    }
                ],
                "guestCounts": [
                    {
                        "guestCount": {
                            "ageQualifyingCode": null,
                            "age": "11",
                            "count": "1"
                        }
                    },
                    {
                        "guestCount": {
                            "ageQualifyingCode": null,
                            "age": "-1",
                            "count": "1"
                        }
                    }
                ],
                "timeSpan": {
                    "start": "2020-08-16",
                    "end": "2020-08-19",
                    "duration": "P3N"
                },
                "depositPayments": null,
                "cancelPenalties": [],
                "total": {
                    "amountBeforeTax": "755.07",
                    "amountAfterTax": "849.45",
                    "currencyCode": "USD"
                },
                "basicPropertyInfo": {
                    "hotelCode": "46514",
                    "hotelCityCode": "MCO"
                },
                "serviceRphs": null,
                "resGuestRphs": [
                    {
                        "resGuestRph": {
                            "rph": 1
                        }
                    },
                    {
                        "resGuestRph": {
                            "rph": 2
                        }
                    }
                ]
            }
        ]
    },
    "resGuests": [
        {
            "resGuestRph": "1",
            "age": "-1",
            "profiles": {
                "profileInfo": {
                    "profile": {
                        "profileType": "1",
                        "customer": {
                            "gender": "Unknown",
                            "personName": {
                                "givenName": "Emma",
                                "surname": "Field"
                            }
                        }
                    }
                }
            }
        },
        {
            "resGuestRph": "2",
            "age": "11",
            "profiles": {
                "profileInfo": {
                    "profile": {
                        "profileType": "1",
                        "customer": {
                            "gender": "Unknown",
                            "personName": {
                                "givenName": "Maisie",
                                "surname": "Benton"
                            }
                        }
                    }
                }
            }
        }
    ],
    "resGlobalInfo": {
        "hotelReservationIds": {
            "hotelReservationId": [
                {
                    "type": "8",
                    "value": "RPRkcuyhmt",
                    "source": "HBSI",
                    "date": "2020-01-02T14:16:10"
                },
                {
                    "type": "14",
                    "value": "ATD-1715302",
                    "source": "ATD",
                    "date": "2020-01-02T14:16:10"
                },
                {
                    "type": "18",
                    "value": "S3DL5S22Z",
                    "source": "ATD",
                    "date": "2020-01-02T14:16:10"
                }
            ]
        }
    }
}