{
    "roomStays": {
        "roomStay": [
            {
                "roomTypes": [
                    {
                        "roomType": {
                            "roomTypeCode": "STD2Q",
                            "numberOfUnits": "1",
                            "isRoom": "true"
                        }
                    }
                ],
                "ratePlans": [
                    {
                        "ratePlan": {
                            "ratePlanCode": "WIS15",
                            "ratePlanId": "WIS15",
                            "ratePlanName": "WIS15"
                        }
                    }
                ],
                "roomRates": [
                    {
                        "roomRate": {
                            "numberOfUnits": "1",
                            "effectiveDate": "2020-06-13",
                            "expireDate": "2020-06-15",
                            "roomTypeCode": "STD2Q",
                            "ratePlanCode": "WIS15",
                            "rates": [
                                {
                                    "rate": {
                                        "effectiveDate": "2020-06-13",
                                        "expireDate": "2020-06-14",
                                        "rateTimeUnit": "Day",
                                        "unitMultiplier": "1",
                                        "base": {
                                            "amountBeforeTax": "224.40",
                                            "amountAfterTax": "252.45",
                                            "currencyCode": "USD"
                                        },
                                        "total": {
                                            "amountBeforeTax": "224.40",
                                            "amountAfterTax": "252.45",
                                            "currencyCode": "USD"
                                        },
                                        "tpaExtensions": [
                                            {}
                                        ]
                                    }
                                },
                                {
                                    "rate": {
                                        "effectiveDate": "2020-06-14",
                                        "expireDate": "2020-06-15",
                                        "rateTimeUnit": "Day",
                                        "unitMultiplier": "1",
                                        "base": {
                                            "amountBeforeTax": "220.15",
                                            "amountAfterTax": "247.67",
                                            "currencyCode": "USD"
                                        },
                                        "total": {
                                            "amountBeforeTax": "220.15",
                                            "amountAfterTax": "247.67",
                                            "currencyCode": "USD"
                                        },
                                        "tpaExtensions": [
                                            {}
                                        ]
                                    }
                                }
                            ]
                        }
                    }
                ],
                "guestCounts": [
                    {
                        "guestCount": {
                            "ageQualifyingCode": null,
                            "age": "-1",
                            "count": "4"
                        }
                    }
                ],
                "timeSpan": {
                    "start": "2020-06-13",
                    "end": "2020-06-15",
                    "duration": "P2N"
                },
                "depositPayments": null,
                "cancelPenalties": [],
                "total": {
                    "amountBeforeTax": "444.55",
                    "amountAfterTax": "500.12",
                    "currencyCode": "USD"
                },
                "basicPropertyInfo": {
                    "hotelCode": "74851",
                    "hotelCityCode": "MCO"
                },
                "serviceRphs": null,
                "resGuestRphs": [
                    {
                        "resGuestRph": {
                            "rph": 1
                        }
                    },
                    {
                        "resGuestRph": {
                            "rph": 2
                        }
                    },
                    {
                        "resGuestRph": {
                            "rph": 3
                        }
                    },
                    {
                        "resGuestRph": {
                            "rph": 4
                        }
                    }
                ]
            }
        ]
    },
    "resGuests": [
        {
            "resGuestRph": "1",
            "age": "-1",
            "profiles": {
                "profileInfo": {
                    "profile": {
                        "profileType": "1",
                        "customer": {
                            "gender": "Unknown",
                            "personName": {
                                "givenName": "Paul",
                                "surname": "Cockell"
                            }
                        }
                    }
                }
            }
        },
        {
            "resGuestRph": "2",
            "age": "-1",
            "profiles": {
                "profileInfo": {
                    "profile": {
                        "profileType": "1",
                        "customer": {
                            "gender": "Unknown",
                            "personName": {
                                "givenName": "Tracey",
                                "surname": "Cockell"
                            }
                        }
                    }
                }
            }
        },
        {
            "resGuestRph": "3",
            "age": "-1",
            "profiles": {
                "profileInfo": {
                    "profile": {
                        "profileType": "1",
                        "customer": {
                            "gender": "Unknown",
                            "personName": {
                                "givenName": "Kirsty",
                                "surname": "Cockell"
                            }
                        }
                    }
                }
            }
        },
        {
            "resGuestRph": "4",
            "age": "-1",
            "profiles": {
                "profileInfo": {
                    "profile": {
                        "profileType": "1",
                        "customer": {
                            "gender": "Unknown",
                            "personName": {
                                "givenName": "Jessica",
                                "surname": "Cockell"
                            }
                        }
                    }
                }
            }
        }
    ],
    "resGlobalInfo": {
        "hotelReservationIds": {
            "hotelReservationId": [
                {
                    "type": "8",
                    "value": "AVHxAvrMDD",
                    "source": "HBSI",
                    "date": "2020-01-19T00:31:46"
                },
                {
                    "type": "14",
                    "value": "ATD-1729402",
                    "source": "ATD",
                    "date": "2020-01-19T00:31:46"
                },
                {
                    "type": "18",
                    "value": "07MLUQ88U",
                    "source": "ATD",
                    "date": "2020-01-19T00:31:46"
                }
            ]
        }
    }
}