{
    "roomStays": {
        "roomStay": [
            {
                "roomTypes": [
                    {
                        "roomType": {
                            "roomTypeCode": "CFS2Q",
                            "numberOfUnits": "1",
                            "isRoom": "true"
                        }
                    }
                ],
                "ratePlans": [
                    {
                        "ratePlan": {
                            "ratePlanCode": "WI15L7",
                            "ratePlanId": "WI15L7",
                            "ratePlanName": "WI15L7"
                        }
                    }
                ],
                "roomRates": [
                    {
                        "roomRate": {
                            "numberOfUnits": "1",
                            "effectiveDate": "2020-08-13",
                            "expireDate": "2020-09-03",
                            "roomTypeCode": "CFS2Q",
                            "ratePlanCode": "WI15L7",
                            "rates": [
                                {
                                    "rate": {
                                        "effectiveDate": "2020-08-13",
                                        "expireDate": "2020-08-14",
                                        "rateTimeUnit": "Day",
                                        "unitMultiplier": "1",
                                        "base": {
                                            "amountBeforeTax": "130.30",
                                            "amountAfterTax": "146.59",
                                            "currencyCode": "USD"
                                        },
                                        "total": {
                                            "amountBeforeTax": "130.30",
                                            "amountAfterTax": "146.59",
                                            "currencyCode": "USD"
                                        },
                                        "tpaExtensions": [
                                            {}
                                        ]
                                    }
                                },
                                {
                                    "rate": {
                                        "effectiveDate": "2020-08-14",
                                        "expireDate": "2020-08-16",
                                        "rateTimeUnit": "Day",
                                        "unitMultiplier": "2",
                                        "base": {
                                            "amountBeforeTax": "139.23",
                                            "amountAfterTax": "156.63",
                                            "currencyCode": "USD"
                                        },
                                        "total": {
                                            "amountBeforeTax": "278.46",
                                            "amountAfterTax": "313.26",
                                            "currencyCode": "USD"
                                        },
                                        "tpaExtensions": [
                                            {}
                                        ]
                                    }
                                },
                                {
                                    "rate": {
                                        "effectiveDate": "2020-08-16",
                                        "expireDate": "2020-08-21",
                                        "rateTimeUnit": "Day",
                                        "unitMultiplier": "5",
                                        "base": {
                                            "amountBeforeTax": "130.30",
                                            "amountAfterTax": "146.59",
                                            "currencyCode": "USD"
                                        },
                                        "total": {
                                            "amountBeforeTax": "651.50",
                                            "amountAfterTax": "732.95",
                                            "currencyCode": "USD"
                                        },
                                        "tpaExtensions": [
                                            {}
                                        ]
                                    }
                                },
                                {
                                    "rate": {
                                        "effectiveDate": "2020-08-21",
                                        "expireDate": "2020-08-23",
                                        "rateTimeUnit": "Day",
                                        "unitMultiplier": "2",
                                        "base": {
                                            "amountBeforeTax": "139.23",
                                            "amountAfterTax": "156.63",
                                            "currencyCode": "USD"
                                        },
                                        "total": {
                                            "amountBeforeTax": "278.46",
                                            "amountAfterTax": "313.26",
                                            "currencyCode": "USD"
                                        },
                                        "tpaExtensions": [
                                            {}
                                        ]
                                    }
                                },
                                {
                                    "rate": {
                                        "effectiveDate": "2020-08-23",
                                        "expireDate": "2020-08-28",
                                        "rateTimeUnit": "Day",
                                        "unitMultiplier": "5",
                                        "base": {
                                            "amountBeforeTax": "121.38",
                                            "amountAfterTax": "136.55",
                                            "currencyCode": "USD"
                                        },
                                        "total": {
                                            "amountBeforeTax": "606.90",
                                            "amountAfterTax": "682.75",
                                            "currencyCode": "USD"
                                        },
                                        "tpaExtensions": [
                                            {}
                                        ]
                                    }
                                },
                                {
                                    "rate": {
                                        "effectiveDate": "2020-08-28",
                                        "expireDate": "2020-08-30",
                                        "rateTimeUnit": "Day",
                                        "unitMultiplier": "2",
                                        "base": {
                                            "amountBeforeTax": "130.30",
                                            "amountAfterTax": "146.59",
                                            "currencyCode": "USD"
                                        },
                                        "total": {
                                            "amountBeforeTax": "260.60",
                                            "amountAfterTax": "293.18",
                                            "currencyCode": "USD"
                                        },
                                        "tpaExtensions": [
                                            {}
                                        ]
                                    }
                                },
                                {
                                    "rate": {
                                        "effectiveDate": "2020-08-30",
                                        "expireDate": "2020-09-03",
                                        "rateTimeUnit": "Day",
                                        "unitMultiplier": "4",
                                        "base": {
                                            "amountBeforeTax": "121.38",
                                            "amountAfterTax": "136.55",
                                            "currencyCode": "USD"
                                        },
                                        "total": {
                                            "amountBeforeTax": "485.52",
                                            "amountAfterTax": "546.20",
                                            "currencyCode": "USD"
                                        },
                                        "tpaExtensions": [
                                            {}
                                        ]
                                    }
                                }
                            ]
                        }
                    }
                ],
                "guestCounts": [
                    {
                        "guestCount": {
                            "ageQualifyingCode": null,
                            "age": "8",
                            "count": "1"
                        }
                    },
                    {
                        "guestCount": {
                            "ageQualifyingCode": null,
                            "age": "10",
                            "count": "1"
                        }
                    },
                    {
                        "guestCount": {
                            "ageQualifyingCode": null,
                            "age": "-1",
                            "count": "2"
                        }
                    }
                ],
                "timeSpan": {
                    "start": "2020-08-13",
                    "end": "2020-09-03",
                    "duration": "P21N"
                },
                "depositPayments": null,
                "cancelPenalties": [],
                "total": {
                    "amountBeforeTax": "2691.74",
                    "amountAfterTax": "3028.19",
                    "currencyCode": "USD"
                },
                "basicPropertyInfo": {
                    "hotelCode": "60331",
                    "hotelCityCode": "MCO"
                },
                "serviceRphs": null,
                "resGuestRphs": [
                    {
                        "resGuestRph": {
                            "rph": 1
                        }
                    },
                    {
                        "resGuestRph": {
                            "rph": 2
                        }
                    },
                    {
                        "resGuestRph": {
                            "rph": 3
                        }
                    },
                    {
                        "resGuestRph": {
                            "rph": 4
                        }
                    }
                ]
            }
        ]
    },
    "resGuests": [
        {
            "resGuestRph": "1",
            "age": "-1",
            "profiles": {
                "profileInfo": {
                    "profile": {
                        "profileType": "1",
                        "customer": {
                            "gender": "Unknown",
                            "personName": {
                                "givenName": "Gavin",
                                "surname": "Kilner"
                            }
                        }
                    }
                }
            }
        },
        {
            "resGuestRph": "2",
            "age": "-1",
            "profiles": {
                "profileInfo": {
                    "profile": {
                        "profileType": "1",
                        "customer": {
                            "gender": "Unknown",
                            "personName": {
                                "givenName": "Jodie",
                                "surname": "Kilner"
                            }
                        }
                    }
                }
            }
        },
        {
            "resGuestRph": "3",
            "age": "10",
            "profiles": {
                "profileInfo": {
                    "profile": {
                        "profileType": "1",
                        "customer": {
                            "gender": "Unknown",
                            "personName": {
                                "givenName": "Alba",
                                "surname": "Kilner"
                            }
                        }
                    }
                }
            }
        },
        {
            "resGuestRph": "4",
            "age": "8",
            "profiles": {
                "profileInfo": {
                    "profile": {
                        "profileType": "1",
                        "customer": {
                            "gender": "Unknown",
                            "personName": {
                                "givenName": "Zoey",
                                "surname": "Kilner"
                            }
                        }
                    }
                }
            }
        }
    ],
    "resGlobalInfo": {
        "hotelReservationIds": {
            "hotelReservationId": [
                {
                    "type": "8",
                    "value": "CBBv95KM0m",
                    "source": "HBSI",
                    "date": "2020-01-09T09:39:44"
                },
                {
                    "type": "14",
                    "value": "ATD-1720681",
                    "source": "ATD",
                    "date": "2020-01-09T09:39:44"
                },
                {
                    "type": "18",
                    "value": "S35L53QFG",
                    "source": "ATD",
                    "date": "2020-01-09T09:39:44"
                }
            ]
        }
    }
}