{
    "roomStays": {
        "roomStay": [
            {
                "roomTypes": [
                    {
                        "roomType": {
                            "roomTypeCode": "STD2Q",
                            "numberOfUnits": "1",
                            "isRoom": "true"
                        }
                    }
                ],
                "ratePlans": [
                    {
                        "ratePlan": {
                            "ratePlanCode": "WI15L7",
                            "ratePlanId": "WI15L7",
                            "ratePlanName": "WI15L7"
                        }
                    }
                ],
                "roomRates": [
                    {
                        "roomRate": {
                            "numberOfUnits": "1",
                            "effectiveDate": "2020-12-05",
                            "expireDate": "2020-12-12",
                            "roomTypeCode": "STD2Q",
                            "ratePlanCode": "WI15L7",
                            "rates": [
                                {
                                    "rate": {
                                        "effectiveDate": "2020-12-05",
                                        "expireDate": "2020-12-06",
                                        "rateTimeUnit": "Day",
                                        "unitMultiplier": "1",
                                        "base": {
                                            "amountBeforeTax": "70.80",
                                            "amountAfterTax": "79.65",
                                            "currencyCode": "USD"
                                        },
                                        "total": {
                                            "amountBeforeTax": "70.80",
                                            "amountAfterTax": "79.65",
                                            "currencyCode": "USD"
                                        },
                                        "tpaExtensions": [
                                            {}
                                        ]
                                    }
                                },
                                {
                                    "rate": {
                                        "effectiveDate": "2020-12-06",
                                        "expireDate": "2020-12-11",
                                        "rateTimeUnit": "Day",
                                        "unitMultiplier": "5",
                                        "base": {
                                            "amountBeforeTax": "61.88",
                                            "amountAfterTax": "69.61",
                                            "currencyCode": "USD"
                                        },
                                        "total": {
                                            "amountBeforeTax": "309.40",
                                            "amountAfterTax": "348.05",
                                            "currencyCode": "USD"
                                        },
                                        "tpaExtensions": [
                                            {}
                                        ]
                                    }
                                },
                                {
                                    "rate": {
                                        "effectiveDate": "2020-12-11",
                                        "expireDate": "2020-12-12",
                                        "rateTimeUnit": "Day",
                                        "unitMultiplier": "1",
                                        "base": {
                                            "amountBeforeTax": "70.80",
                                            "amountAfterTax": "79.65",
                                            "currencyCode": "USD"
                                        },
                                        "total": {
                                            "amountBeforeTax": "70.80",
                                            "amountAfterTax": "79.65",
                                            "currencyCode": "USD"
                                        },
                                        "tpaExtensions": [
                                            {}
                                        ]
                                    }
                                }
                            ]
                        }
                    }
                ],
                "guestCounts": [
                    {
                        "guestCount": {
                            "ageQualifyingCode": null,
                            "age": "-1",
                            "count": "2"
                        }
                    }
                ],
                "timeSpan": {
                    "start": "2020-12-05",
                    "end": "2020-12-12",
                    "duration": "P7N"
                },
                "depositPayments": null,
                "cancelPenalties": [],
                "total": {
                    "amountBeforeTax": "451.00",
                    "amountAfterTax": "507.35",
                    "currencyCode": "USD"
                },
                "basicPropertyInfo": {
                    "hotelCode": "78256",
                    "hotelCityCode": "MCO"
                },
                "serviceRphs": null,
                "resGuestRphs": [
                    {
                        "resGuestRph": {
                            "rph": 1
                        }
                    },
                    {
                        "resGuestRph": {
                            "rph": 2
                        }
                    }
                ]
            }
        ]
    },
    "resGuests": [
        {
            "resGuestRph": "1",
            "age": "-1",
            "profiles": {
                "profileInfo": {
                    "profile": {
                        "profileType": "1",
                        "customer": {
                            "gender": "Unknown",
                            "personName": {
                                "givenName": "Lee",
                                "surname": "Guinan smyth"
                            }
                        }
                    }
                }
            }
        },
        {
            "resGuestRph": "2",
            "age": "-1",
            "profiles": {
                "profileInfo": {
                    "profile": {
                        "profileType": "1",
                        "customer": {
                            "gender": "Unknown",
                            "personName": {
                                "givenName": "Lucy",
                                "surname": "Sergeant"
                            }
                        }
                    }
                }
            }
        }
    ],
    "resGlobalInfo": {
        "hotelReservationIds": {
            "hotelReservationId": [
                {
                    "type": "8",
                    "value": "ESSaQ9E8sC",
                    "source": "HBSI",
                    "date": "2020-01-27T19:47:54"
                },
                {
                    "type": "14",
                    "value": "ATD-1735688",
                    "source": "ATD",
                    "date": "2020-01-27T19:47:54"
                },
                {
                    "type": "18",
                    "value": "03YLUZBD7",
                    "source": "ATD",
                    "date": "2020-01-27T19:47:54"
                }
            ]
        }
    }
}