{
    "roomStays": {
        "roomStay": [
            {
                "roomTypes": [
                    {
                        "roomType": {
                            "roomTypeCode": "STD2Q",
                            "numberOfUnits": "1",
                            "isRoom": "true"
                        }
                    }
                ],
                "ratePlans": [
                    {
                        "ratePlan": {
                            "ratePlanCode": "WI15L7",
                            "ratePlanId": "WI15L7",
                            "ratePlanName": "WI15L7"
                        }
                    }
                ],
                "roomRates": [
                    {
                        "roomRate": {
                            "numberOfUnits": "1",
                            "effectiveDate": "2020-07-04",
                            "expireDate": "2020-07-14",
                            "roomTypeCode": "STD2Q",
                            "ratePlanCode": "WI15L7",
                            "rates": [
                                {
                                    "rate": {
                                        "effectiveDate": "2020-07-04",
                                        "expireDate": "2020-07-05",
                                        "rateTimeUnit": "Day",
                                        "unitMultiplier": "1",
                                        "base": {
                                            "amountBeforeTax": "152.36",
                                            "amountAfterTax": "171.40",
                                            "currencyCode": "USD"
                                        },
                                        "total": {
                                            "amountBeforeTax": "152.36",
                                            "amountAfterTax": "171.40",
                                            "currencyCode": "USD"
                                        },
                                        "tpaExtensions": [
                                            {}
                                        ]
                                    }
                                },
                                {
                                    "rate": {
                                        "effectiveDate": "2020-07-05",
                                        "expireDate": "2020-07-10",
                                        "rateTimeUnit": "Day",
                                        "unitMultiplier": "5",
                                        "base": {
                                            "amountBeforeTax": "139.61",
                                            "amountAfterTax": "157.06",
                                            "currencyCode": "USD"
                                        },
                                        "total": {
                                            "amountBeforeTax": "698.05",
                                            "amountAfterTax": "785.30",
                                            "currencyCode": "USD"
                                        },
                                        "tpaExtensions": [
                                            {}
                                        ]
                                    }
                                },
                                {
                                    "rate": {
                                        "effectiveDate": "2020-07-10",
                                        "expireDate": "2020-07-12",
                                        "rateTimeUnit": "Day",
                                        "unitMultiplier": "2",
                                        "base": {
                                            "amountBeforeTax": "152.36",
                                            "amountAfterTax": "171.40",
                                            "currencyCode": "USD"
                                        },
                                        "total": {
                                            "amountBeforeTax": "304.72",
                                            "amountAfterTax": "342.80",
                                            "currencyCode": "USD"
                                        },
                                        "tpaExtensions": [
                                            {}
                                        ]
                                    }
                                },
                                {
                                    "rate": {
                                        "effectiveDate": "2020-07-12",
                                        "expireDate": "2020-07-14",
                                        "rateTimeUnit": "Day",
                                        "unitMultiplier": "2",
                                        "base": {
                                            "amountBeforeTax": "139.61",
                                            "amountAfterTax": "157.06",
                                            "currencyCode": "USD"
                                        },
                                        "total": {
                                            "amountBeforeTax": "279.22",
                                            "amountAfterTax": "314.12",
                                            "currencyCode": "USD"
                                        },
                                        "tpaExtensions": [
                                            {}
                                        ]
                                    }
                                }
                            ]
                        }
                    }
                ],
                "guestCounts": [
                    {
                        "guestCount": {
                            "ageQualifyingCode": null,
                            "age": "-1",
                            "count": "2"
                        }
                    },
                    {
                        "guestCount": {
                            "ageQualifyingCode": null,
                            "age": "9",
                            "count": "1"
                        }
                    }
                ],
                "timeSpan": {
                    "start": "2020-07-04",
                    "end": "2020-07-14",
                    "duration": "P10N"
                },
                "depositPayments": null,
                "cancelPenalties": [],
                "total": {
                    "amountBeforeTax": "1434.35",
                    "amountAfterTax": "1613.62",
                    "currencyCode": "USD"
                },
                "basicPropertyInfo": {
                    "hotelCode": "74851",
                    "hotelCityCode": "MCO"
                },
                "serviceRphs": null,
                "resGuestRphs": [
                    {
                        "resGuestRph": {
                            "rph": 1
                        }
                    },
                    {
                        "resGuestRph": {
                            "rph": 2
                        }
                    },
                    {
                        "resGuestRph": {
                            "rph": 3
                        }
                    }
                ]
            }
        ]
    },
    "resGuests": [
        {
            "resGuestRph": "1",
            "age": "-1",
            "profiles": {
                "profileInfo": {
                    "profile": {
                        "profileType": "1",
                        "customer": {
                            "gender": "Unknown",
                            "personName": {
                                "givenName": "Matthew",
                                "surname": "Costin"
                            }
                        }
                    }
                }
            }
        },
        {
            "resGuestRph": "2",
            "age": "-1",
            "profiles": {
                "profileInfo": {
                    "profile": {
                        "profileType": "1",
                        "customer": {
                            "gender": "Unknown",
                            "personName": {
                                "givenName": "Matthew",
                                "surname": "Costin"
                            }
                        }
                    }
                }
            }
        },
        {
            "resGuestRph": "3",
            "age": "9",
            "profiles": {
                "profileInfo": {
                    "profile": {
                        "profileType": "1",
                        "customer": {
                            "gender": "Unknown",
                            "personName": {
                                "givenName": "Matthew",
                                "surname": "Costin"
                            }
                        }
                    }
                }
            }
        }
    ],
    "resGlobalInfo": {
        "hotelReservationIds": {
            "hotelReservationId": [
                {
                    "type": "8",
                    "value": "AVHgZK0ePI",
                    "source": "HBSI",
                    "date": "2020-01-25T18:13:52"
                },
                {
                    "type": "14",
                    "value": "ATD-1734940",
                    "source": "ATD",
                    "date": "2020-01-25T18:13:52"
                },
                {
                    "type": "18",
                    "value": "07MLUZ7QQ",
                    "source": "ATD",
                    "date": "2020-01-25T18:13:52"
                }
            ]
        }
    }
}