{
    "roomStays": {
        "roomStay": [
            {
                "roomTypes": [
                    {
                        "roomType": {
                            "roomTypeCode": "GDN2Q",
                            "numberOfUnits": "1",
                            "isRoom": "true"
                        }
                    }
                ],
                "ratePlans": [
                    {
                        "ratePlan": {
                            "ratePlanCode": "WI15L3",
                            "ratePlanId": "WI15L3",
                            "ratePlanName": "WI15L3"
                        }
                    }
                ],
                "roomRates": [
                    {
                        "roomRate": {
                            "numberOfUnits": "1",
                            "effectiveDate": "2020-08-28",
                            "expireDate": "2020-08-31",
                            "roomTypeCode": "GDN2Q",
                            "ratePlanCode": "WI15L3",
                            "rates": [
                                {
                                    "rate": {
                                        "effectiveDate": "2020-08-28",
                                        "expireDate": "2020-08-30",
                                        "rateTimeUnit": "Day",
                                        "unitMultiplier": "2",
                                        "base": {
                                            "amountBeforeTax": "282.29",
                                            "amountAfterTax": "317.58",
                                            "currencyCode": "USD"
                                        },
                                        "total": {
                                            "amountBeforeTax": "564.58",
                                            "amountAfterTax": "635.16",
                                            "currencyCode": "USD"
                                        },
                                        "tpaExtensions": [
                                            {}
                                        ]
                                    }
                                },
                                {
                                    "rate": {
                                        "effectiveDate": "2020-08-30",
                                        "expireDate": "2020-08-31",
                                        "rateTimeUnit": "Day",
                                        "unitMultiplier": "1",
                                        "base": {
                                            "amountBeforeTax": "263.16",
                                            "amountAfterTax": "296.06",
                                            "currencyCode": "USD"
                                        },
                                        "total": {
                                            "amountBeforeTax": "263.16",
                                            "amountAfterTax": "296.06",
                                            "currencyCode": "USD"
                                        },
                                        "tpaExtensions": [
                                            {}
                                        ]
                                    }
                                }
                            ]
                        }
                    }
                ],
                "guestCounts": [
                    {
                        "guestCount": {
                            "ageQualifyingCode": null,
                            "age": "-1",
                            "count": "2"
                        }
                    },
                    {
                        "guestCount": {
                            "ageQualifyingCode": null,
                            "age": "7",
                            "count": "1"
                        }
                    }
                ],
                "timeSpan": {
                    "start": "2020-08-28",
                    "end": "2020-08-31",
                    "duration": "P3N"
                },
                "depositPayments": null,
                "cancelPenalties": [],
                "total": {
                    "amountBeforeTax": "827.74",
                    "amountAfterTax": "931.22",
                    "currencyCode": "USD"
                },
                "basicPropertyInfo": {
                    "hotelCode": "46513",
                    "hotelCityCode": "MCO"
                },
                "serviceRphs": null,
                "resGuestRphs": [
                    {
                        "resGuestRph": {
                            "rph": 1
                        }
                    },
                    {
                        "resGuestRph": {
                            "rph": 2
                        }
                    },
                    {
                        "resGuestRph": {
                            "rph": 3
                        }
                    }
                ]
            }
        ]
    },
    "resGuests": [
        {
            "resGuestRph": "1",
            "age": "-1",
            "profiles": {
                "profileInfo": {
                    "profile": {
                        "profileType": "1",
                        "customer": {
                            "gender": "Unknown",
                            "personName": {
                                "givenName": "Jane",
                                "surname": "Keating"
                            }
                        }
                    }
                }
            }
        },
        {
            "resGuestRph": "2",
            "age": "-1",
            "profiles": {
                "profileInfo": {
                    "profile": {
                        "profileType": "1",
                        "customer": {
                            "gender": "Unknown",
                            "personName": {
                                "givenName": "Christopher",
                                "surname": "Holcombe"
                            }
                        }
                    }
                }
            }
        },
        {
            "resGuestRph": "3",
            "age": "7",
            "profiles": {
                "profileInfo": {
                    "profile": {
                        "profileType": "1",
                        "customer": {
                            "gender": "Unknown",
                            "personName": {
                                "givenName": "Vaughan",
                                "surname": "Holcombe"
                            }
                        }
                    }
                }
            }
        }
    ],
    "resGlobalInfo": {
        "hotelReservationIds": {
            "hotelReservationId": [
                {
                    "type": "8",
                    "value": "HRHqJH4Nhf",
                    "source": "HBSI",
                    "date": "2020-01-23T19:36:10"
                },
                {
                    "type": "14",
                    "value": "ATD-1733630",
                    "source": "ATD",
                    "date": "2020-01-23T19:36:10"
                },
                {
                    "type": "18",
                    "value": "S39LUGG4S",
                    "source": "ATD",
                    "date": "2020-01-23T19:36:10"
                }
            ]
        }
    }
}