{
    "roomStays": {
        "roomStay": [
            {
                "roomTypes": [
                    {
                        "roomType": {
                            "roomTypeCode": "WTR2Q",
                            "numberOfUnits": "1",
                            "isRoom": "true"
                        }
                    }
                ],
                "ratePlans": [
                    {
                        "ratePlan": {
                            "ratePlanCode": "WIS15",
                            "ratePlanId": "WIS15",
                            "ratePlanName": "WIS15"
                        }
                    }
                ],
                "roomRates": [
                    {
                        "roomRate": {
                            "numberOfUnits": "1",
                            "effectiveDate": "2020-08-13",
                            "expireDate": "2020-08-15",
                            "roomTypeCode": "WTR2Q",
                            "ratePlanCode": "WIS15",
                            "rates": [
                                {
                                    "rate": {
                                        "effectiveDate": "2020-08-13",
                                        "expireDate": "2020-08-14",
                                        "rateTimeUnit": "Day",
                                        "unitMultiplier": "1",
                                        "base": {
                                            "amountBeforeTax": "300.90",
                                            "amountAfterTax": "338.51",
                                            "currencyCode": "USD"
                                        },
                                        "total": {
                                            "amountBeforeTax": "300.90",
                                            "amountAfterTax": "338.51",
                                            "currencyCode": "USD"
                                        },
                                        "tpaExtensions": [
                                            {}
                                        ]
                                    }
                                },
                                {
                                    "rate": {
                                        "effectiveDate": "2020-08-14",
                                        "expireDate": "2020-08-15",
                                        "rateTimeUnit": "Day",
                                        "unitMultiplier": "1",
                                        "base": {
                                            "amountBeforeTax": "322.15",
                                            "amountAfterTax": "362.42",
                                            "currencyCode": "USD"
                                        },
                                        "total": {
                                            "amountBeforeTax": "322.15",
                                            "amountAfterTax": "362.42",
                                            "currencyCode": "USD"
                                        },
                                        "tpaExtensions": [
                                            {}
                                        ]
                                    }
                                }
                            ]
                        }
                    }
                ],
                "guestCounts": [
                    {
                        "guestCount": {
                            "ageQualifyingCode": null,
                            "age": "-1",
                            "count": "2"
                        }
                    },
                    {
                        "guestCount": {
                            "ageQualifyingCode": null,
                            "age": "13",
                            "count": "1"
                        }
                    }
                ],
                "timeSpan": {
                    "start": "2020-08-13",
                    "end": "2020-08-15",
                    "duration": "P2N"
                },
                "depositPayments": null,
                "cancelPenalties": [],
                "total": {
                    "amountBeforeTax": "623.05",
                    "amountAfterTax": "700.93",
                    "currencyCode": "USD"
                },
                "basicPropertyInfo": {
                    "hotelCode": "46514",
                    "hotelCityCode": "MCO"
                },
                "serviceRphs": null,
                "resGuestRphs": [
                    {
                        "resGuestRph": {
                            "rph": 1
                        }
                    },
                    {
                        "resGuestRph": {
                            "rph": 2
                        }
                    },
                    {
                        "resGuestRph": {
                            "rph": 3
                        }
                    }
                ]
            }
        ]
    },
    "resGuests": [
        {
            "resGuestRph": "1",
            "age": "-1",
            "profiles": {
                "profileInfo": {
                    "profile": {
                        "profileType": "1",
                        "customer": {
                            "gender": "Unknown",
                            "personName": {
                                "givenName": "Steven",
                                "surname": "Bryson"
                            }
                        }
                    }
                }
            }
        },
        {
            "resGuestRph": "2",
            "age": "-1",
            "profiles": {
                "profileInfo": {
                    "profile": {
                        "profileType": "1",
                        "customer": {
                            "gender": "Unknown",
                            "personName": {
                                "givenName": "Inge",
                                "surname": "Bryson"
                            }
                        }
                    }
                }
            }
        },
        {
            "resGuestRph": "3",
            "age": "13",
            "profiles": {
                "profileInfo": {
                    "profile": {
                        "profileType": "1",
                        "customer": {
                            "gender": "Unknown",
                            "personName": {
                                "givenName": "Jasmine",
                                "surname": "Bryson"
                            }
                        }
                    }
                }
            }
        }
    ],
    "resGlobalInfo": {
        "hotelReservationIds": {
            "hotelReservationId": [
                {
                    "type": "8",
                    "value": "RPRXVvOEgL",
                    "source": "HBSI",
                    "date": "2020-01-19T14:46:42"
                },
                {
                    "type": "14",
                    "value": "ATD-1729886",
                    "source": "ATD",
                    "date": "2020-07-07T13:44:00"
                },
                {
                    "type": "18",
                    "value": "S3DLUQJSM",
                    "source": "ATD",
                    "date": "2020-07-07T13:44:00"
                }
            ]
        }
    }
}