{
    "roomStays": {
        "roomStay": [
            {
                "roomTypes": [
                    {
                        "roomType": {
                            "roomTypeCode": "CLB2Q",
                            "numberOfUnits": "1",
                            "isRoom": "true"
                        }
                    }
                ],
                "ratePlans": [
                    {
                        "ratePlan": {
                            "ratePlanCode": "WI15L5",
                            "ratePlanId": "WI15L5",
                            "ratePlanName": "WI15L5"
                        }
                    }
                ],
                "roomRates": [
                    {
                        "roomRate": {
                            "numberOfUnits": "1",
                            "effectiveDate": "2020-08-17",
                            "expireDate": "2020-08-22",
                            "roomTypeCode": "CLB2Q",
                            "ratePlanCode": "WI15L5",
                            "rates": [
                                {
                                    "rate": {
                                        "effectiveDate": "2020-08-17",
                                        "expireDate": "2020-08-21",
                                        "rateTimeUnit": "Day",
                                        "unitMultiplier": "4",
                                        "base": {
                                            "amountBeforeTax": "327.68",
                                            "amountAfterTax": "368.64",
                                            "currencyCode": "USD"
                                        },
                                        "total": {
                                            "amountBeforeTax": "1310.72",
                                            "amountAfterTax": "1474.56",
                                            "currencyCode": "USD"
                                        },
                                        "tpaExtensions": [
                                            {}
                                        ]
                                    }
                                },
                                {
                                    "rate": {
                                        "effectiveDate": "2020-08-21",
                                        "expireDate": "2020-08-22",
                                        "rateTimeUnit": "Day",
                                        "unitMultiplier": "1",
                                        "base": {
                                            "amountBeforeTax": "343.61",
                                            "amountAfterTax": "386.56",
                                            "currencyCode": "USD"
                                        },
                                        "total": {
                                            "amountBeforeTax": "343.61",
                                            "amountAfterTax": "386.56",
                                            "currencyCode": "USD"
                                        },
                                        "tpaExtensions": [
                                            {}
                                        ]
                                    }
                                }
                            ]
                        }
                    }
                ],
                "guestCounts": [
                    {
                        "guestCount": {
                            "ageQualifyingCode": null,
                            "age": "13",
                            "count": "1"
                        }
                    },
                    {
                        "guestCount": {
                            "ageQualifyingCode": null,
                            "age": "11",
                            "count": "1"
                        }
                    },
                    {
                        "guestCount": {
                            "ageQualifyingCode": null,
                            "age": "-1",
                            "count": "2"
                        }
                    }
                ],
                "timeSpan": {
                    "start": "2020-08-17",
                    "end": "2020-08-22",
                    "duration": "P5N"
                },
                "depositPayments": null,
                "cancelPenalties": [],
                "total": {
                    "amountBeforeTax": "1654.33",
                    "amountAfterTax": "1861.12",
                    "currencyCode": "USD"
                },
                "basicPropertyInfo": {
                    "hotelCode": "46512",
                    "hotelCityCode": "MCO"
                },
                "serviceRphs": null,
                "resGuestRphs": [
                    {
                        "resGuestRph": {
                            "rph": 1
                        }
                    },
                    {
                        "resGuestRph": {
                            "rph": 2
                        }
                    },
                    {
                        "resGuestRph": {
                            "rph": 3
                        }
                    },
                    {
                        "resGuestRph": {
                            "rph": 4
                        }
                    }
                ]
            }
        ]
    },
    "resGuests": [
        {
            "resGuestRph": "1",
            "age": "-1",
            "profiles": {
                "profileInfo": {
                    "profile": {
                        "profileType": "1",
                        "customer": {
                            "gender": "Unknown",
                            "personName": {
                                "givenName": "Michael",
                                "surname": "Hughes"
                            }
                        }
                    }
                }
            }
        },
        {
            "resGuestRph": "2",
            "age": "-1",
            "profiles": {
                "profileInfo": {
                    "profile": {
                        "profileType": "1",
                        "customer": {
                            "gender": "Unknown",
                            "personName": {
                                "givenName": "Lisa",
                                "surname": "Hughes"
                            }
                        }
                    }
                }
            }
        },
        {
            "resGuestRph": "3",
            "age": "13",
            "profiles": {
                "profileInfo": {
                    "profile": {
                        "profileType": "1",
                        "customer": {
                            "gender": "Unknown",
                            "personName": {
                                "givenName": "Sam",
                                "surname": "Hughes"
                            }
                        }
                    }
                }
            }
        },
        {
            "resGuestRph": "4",
            "age": "11",
            "profiles": {
                "profileInfo": {
                    "profile": {
                        "profileType": "1",
                        "customer": {
                            "gender": "Unknown",
                            "personName": {
                                "givenName": "Ben",
                                "surname": "Hughes"
                            }
                        }
                    }
                }
            }
        }
    ],
    "resGlobalInfo": {
        "hotelReservationIds": {
            "hotelReservationId": [
                {
                    "type": "8",
                    "value": "PBHUwhZJd4",
                    "source": "HBSI",
                    "date": "2019-12-28T14:56:10"
                },
                {
                    "type": "14",
                    "value": "ATD-1712420",
                    "source": "ATD",
                    "date": "2019-12-28T14:56:10"
                },
                {
                    "type": "18",
                    "value": "S3KL54W51",
                    "source": "ATD",
                    "date": "2019-12-28T14:56:10"
                }
            ]
        }
    }
}