{
  "name": "file-generator",
  "version": "1.0.0",
  "description": "generate json for ibs modification form read response",
  "main": "server.js",
  "scripts": {
    "start": "nodemon server.js",
    "test": "standard"
  },
  "author": "",
  "license": "ISC",
  "dependencies": {
    "axios": "^0.19.2",
    "body-parser": "^1.19.0",
    "express": "^4.17.1",
    "multer": "^1.4.2",
    "mysql": "^2.18.1",
    "react": "^16.13.1",
    "react-dom": "^16.13.1",
    "request": "^2.88.2"
  },
  "devDependencies": {
    "cucumber": "^6.0.5",
    "eslint": "^7.4.0",
    "eslint-config-airbnb-base": "^14.2.0",
    "eslint-config-airbnb-standard": "^3.1.0",
    "eslint-plugin-import": "^2.22.0",
    "jest": "^25.2.3",
    "nodemon": "^2.0.2"
  }
}
