{
    "roomStays": {
        "roomStay": [
            {
                "roomTypes": [
                    {
                        "roomType": {
                            "roomTypeCode": "STD2Q",
                            "numberOfUnits": "1",
                            "isRoom": "true"
                        }
                    }
                ],
                "ratePlans": [
                    {
                        "ratePlan": {
                            "ratePlanCode": "WI15L7",
                            "ratePlanId": "WI15L7",
                            "ratePlanName": "WI15L7"
                        }
                    }
                ],
                "roomRates": [
                    {
                        "roomRate": {
                            "numberOfUnits": "1",
                            "effectiveDate": "2020-09-12",
                            "expireDate": "2020-09-19",
                            "roomTypeCode": "STD2Q",
                            "ratePlanCode": "WI15L7",
                            "rates": [
                                {
                                    "rate": {
                                        "effectiveDate": "2020-09-12",
                                        "expireDate": "2020-09-13",
                                        "rateTimeUnit": "Day",
                                        "unitMultiplier": "1",
                                        "base": {
                                            "amountBeforeTax": "70.80",
                                            "amountAfterTax": "79.65",
                                            "currencyCode": "USD"
                                        },
                                        "total": {
                                            "amountBeforeTax": "70.80",
                                            "amountAfterTax": "79.65",
                                            "currencyCode": "USD"
                                        },
                                        "tpaExtensions": [
                                            {}
                                        ]
                                    }
                                },
                                {
                                    "rate": {
                                        "effectiveDate": "2020-09-13",
                                        "expireDate": "2020-09-18",
                                        "rateTimeUnit": "Day",
                                        "unitMultiplier": "5",
                                        "base": {
                                            "amountBeforeTax": "61.88",
                                            "amountAfterTax": "69.61",
                                            "currencyCode": "USD"
                                        },
                                        "total": {
                                            "amountBeforeTax": "309.40",
                                            "amountAfterTax": "348.05",
                                            "currencyCode": "USD"
                                        },
                                        "tpaExtensions": [
                                            {}
                                        ]
                                    }
                                },
                                {
                                    "rate": {
                                        "effectiveDate": "2020-09-18",
                                        "expireDate": "2020-09-19",
                                        "rateTimeUnit": "Day",
                                        "unitMultiplier": "1",
                                        "base": {
                                            "amountBeforeTax": "70.80",
                                            "amountAfterTax": "79.65",
                                            "currencyCode": "USD"
                                        },
                                        "total": {
                                            "amountBeforeTax": "70.80",
                                            "amountAfterTax": "79.65",
                                            "currencyCode": "USD"
                                        },
                                        "tpaExtensions": [
                                            {}
                                        ]
                                    }
                                }
                            ]
                        }
                    }
                ],
                "guestCounts": [
                    {
                        "guestCount": {
                            "ageQualifyingCode": null,
                            "age": "-1",
                            "count": "2"
                        }
                    }
                ],
                "timeSpan": {
                    "start": "2020-09-12",
                    "end": "2020-09-19",
                    "duration": "P7N"
                },
                "depositPayments": null,
                "cancelPenalties": [],
                "total": {
                    "amountBeforeTax": "451.00",
                    "amountAfterTax": "507.35",
                    "currencyCode": "USD"
                },
                "basicPropertyInfo": {
                    "hotelCode": "78256",
                    "hotelCityCode": "MCO"
                },
                "serviceRphs": null,
                "resGuestRphs": [
                    {
                        "resGuestRph": {
                            "rph": 1
                        }
                    },
                    {
                        "resGuestRph": {
                            "rph": 2
                        }
                    }
                ]
            }
        ]
    },
    "resGuests": [
        {
            "resGuestRph": "1",
            "age": "-1",
            "profiles": {
                "profileInfo": {
                    "profile": {
                        "profileType": "1",
                        "customer": {
                            "gender": "Unknown",
                            "personName": {
                                "givenName": "Rick",
                                "surname": "Van Miert"
                            }
                        }
                    }
                }
            }
        },
        {
            "resGuestRph": "2",
            "age": "-1",
            "profiles": {
                "profileInfo": {
                    "profile": {
                        "profileType": "1",
                        "customer": {
                            "gender": "Unknown",
                            "personName": {
                                "givenName": "Maaike",
                                "surname": "Smits"
                            }
                        }
                    }
                }
            }
        }
    ],
    "resGlobalInfo": {
        "hotelReservationIds": {
            "hotelReservationId": [
                {
                    "type": "8",
                    "value": "ESSCIMzBxc",
                    "source": "HBSI",
                    "date": "2019-12-27T22:41:25"
                },
                {
                    "type": "14",
                    "value": "ATD-1712149",
                    "source": "ATD",
                    "date": "2020-07-08T08:18:25"
                },
                {
                    "type": "18",
                    "value": "03YL54MUE",
                    "source": "ATD",
                    "date": "2020-07-08T08:18:25"
                }
            ]
        }
    }
}