{
    "roomStays": {
        "roomStay": [
            {
                "roomTypes": [
                    {
                        "roomType": {
                            "roomTypeCode": "DEL1K",
                            "numberOfUnits": "1",
                            "isRoom": "true"
                        }
                    }
                ],
                "ratePlans": [
                    {
                        "ratePlan": {
                            "ratePlanCode": "WI15L4",
                            "ratePlanId": "WI15L4",
                            "ratePlanName": "WI15L4"
                        }
                    }
                ],
                "roomRates": [
                    {
                        "roomRate": {
                            "numberOfUnits": "1",
                            "effectiveDate": "2020-08-23",
                            "expireDate": "2020-08-27",
                            "roomTypeCode": "DEL1K",
                            "ratePlanCode": "WI15L4",
                            "rates": [
                                {
                                    "rate": {
                                        "effectiveDate": "2020-08-23",
                                        "expireDate": "2020-08-27",
                                        "rateTimeUnit": "Day",
                                        "unitMultiplier": "4",
                                        "base": {
                                            "amountBeforeTax": "288.32",
                                            "amountAfterTax": "324.36",
                                            "currencyCode": "USD"
                                        },
                                        "total": {
                                            "amountBeforeTax": "1153.28",
                                            "amountAfterTax": "1297.44",
                                            "currencyCode": "USD"
                                        },
                                        "tpaExtensions": [
                                            {}
                                        ]
                                    }
                                }
                            ]
                        }
                    }
                ],
                "guestCounts": [
                    {
                        "guestCount": {
                            "ageQualifyingCode": null,
                            "age": "-1",
                            "count": "2"
                        }
                    }
                ],
                "timeSpan": {
                    "start": "2020-08-23",
                    "end": "2020-08-27",
                    "duration": "P4N"
                },
                "depositPayments": null,
                "cancelPenalties": [],
                "total": {
                    "amountBeforeTax": "1153.28",
                    "amountAfterTax": "1297.44",
                    "currencyCode": "USD"
                },
                "basicPropertyInfo": {
                    "hotelCode": "46513",
                    "hotelCityCode": "MCO"
                },
                "serviceRphs": null,
                "resGuestRphs": [
                    {
                        "resGuestRph": {
                            "rph": 1
                        }
                    },
                    {
                        "resGuestRph": {
                            "rph": 2
                        }
                    }
                ]
            }
        ]
    },
    "resGuests": [
        {
            "resGuestRph": "1",
            "age": "-1",
            "profiles": {
                "profileInfo": {
                    "profile": {
                        "profileType": "1",
                        "customer": {
                            "gender": "Unknown",
                            "personName": {
                                "givenName": "Thomas",
                                "surname": "Barry"
                            }
                        }
                    }
                }
            }
        },
        {
            "resGuestRph": "2",
            "age": "-1",
            "profiles": {
                "profileInfo": {
                    "profile": {
                        "profileType": "1",
                        "customer": {
                            "gender": "Unknown",
                            "personName": {
                                "givenName": "Laura",
                                "surname": "Murray"
                            }
                        }
                    }
                }
            }
        }
    ],
    "resGlobalInfo": {
        "hotelReservationIds": {
            "hotelReservationId": [
                {
                    "type": "8",
                    "value": "HRHK6zdyDL",
                    "source": "HBSI",
                    "date": "2020-01-01T17:08:47"
                },
                {
                    "type": "14",
                    "value": "ATD-1714674",
                    "source": "ATD",
                    "date": "2020-01-01T17:08:47"
                },
                {
                    "type": "18",
                    "value": "S39L5SL6S",
                    "source": "ATD",
                    "date": "2020-01-01T17:08:47"
                }
            ]
        }
    }
}