{
    "_RESPONSE": {
        "roomStayReservation": "true",
        "createDateTime": "2020-01-01T22:06:12",
        "creatorId": null,
        "resStatus": "Book",
        "uniqueId": {
            "type": "8",
            "id": "ESSxrNU4oH"
        },
        "roomStays": {
            "roomStays": [
                {
                    "roomStay": {
                        "roomTypes": [
                            {
                                "roomType": {
                                    "roomTypeCode": "STES3Q",
                                    "numberOfUnits": "1",
                                    "isRoom": "true"
                                }
                            }
                        ],
                        "ratePlans": [
                            {
                                "ratePlan": {
                                    "ratePlanCode": "WI15L7",
                                    "ratePlanId": "WI15L7",
                                    "ratePlanName": "WI15L7"
                                }
                            }
                        ],
                        "roomRates": [
                            {
                                "roomRate": {
                                    "numberOfUnits": "1",
                                    "effectiveDate": "2020-04-20",
                                    "expireDate": "2020-04-22",
                                    "roomTypeCode": "STES3Q",
                                    "ratePlanCode": "WI15L7",
                                    "rates": [
                                        {
                                            "rate": {
                                                "effectiveDate": "2020-04-20",
                                                "expireDate": "2020-04-22",
                                                "rateTimeUnit": "Day",
                                                "unitMultiplier": "2",
                                                "base": {
                                                    "amountBeforeTax": "132.00",
                                                    "amountAfterTax": "148.50",
                                                    "currencyCode": "USD"
                                                },
                                                "total": {
                                                    "amountBeforeTax": "264.00",
                                                    "amountAfterTax": "297.00",
                                                    "currencyCode": "USD"
                                                },
                                                "tpaExtensions": [
                                                    {}
                                                ]
                                            }
                                        }
                                    ]
                                }
                            }
                        ],
                        "guestCounts": [
                            {
                                "guestCount": {
                                    "ageQualifyingCode": null,
                                    "age": "-1",
                                    "count": "4"
                                }
                            }
                        ],
                        "timeSpan": {
                            "start": "2020-04-20",
                            "end": "2020-04-22",
                            "duration": "P2N"
                        },
                        "depositPayments": null,
                        "cancelPenalties": [],
                        "total": {
                            "amountBeforeTax": "264.00",
                            "amountAfterTax": "297.00",
                            "currencyCode": "USD"
                        },
                        "basicPropertyInfo": {
                            "hotelCode": "78256",
                            "hotelCityCode": "MCO"
                        },
                        "serviceRphs": null
                    }
                }
            ]
        },
        "resGuests": [
            {
                "resGuestRph": "1",
                "age": "-1",
                "profiles": {
                    "profileInfo": {
                        "profile": {
                            "profileType": "1",
                            "customer": {
                                "gender": "Unknown",
                                "personName": {
                                    "givenName": "Mrs",
                                    "surname": "Shona henderson"
                                }
                            }
                        }
                    }
                }
            },
            {
                "resGuestRph": "2",
                "age": "-1",
                "profiles": {
                    "profileInfo": {
                        "profile": {
                            "profileType": "1",
                            "customer": {
                                "gender": "Unknown",
                                "personName": {
                                    "givenName": "Mr",
                                    "surname": "Graham Henderson"
                                }
                            }
                        }
                    }
                }
            },
            {
                "resGuestRph": "3",
                "age": "-1",
                "profiles": {
                    "profileInfo": {
                        "profile": {
                            "profileType": "1",
                            "customer": {
                                "gender": "Unknown",
                                "personName": {
                                    "givenName": "Mr",
                                    "surname": "Kyle Henderson"
                                }
                            }
                        }
                    }
                }
            },
            {
                "resGuestRph": "4",
                "age": "-1",
                "profiles": {
                    "profileInfo": {
                        "profile": {
                            "profileType": "1",
                            "customer": {
                                "gender": "Unknown",
                                "personName": {
                                    "givenName": "Mr",
                                    "surname": "Harris henderson"
                                }
                            }
                        }
                    }
                }
            }
        ],
        "resGlobalInfo": {
            "hotelReservationIds": {
                "hotelReservationId": [
                    {
                        "type": "8",
                        "value": "ESSxrNU4oH",
                        "source": "HBSI",
                        "date": "2020-01-01T22:06:12"
                    },
                    {
                        "type": "14",
                        "value": "ATD-1714893",
                        "source": "ATD",
                        "date": "2020-01-01T22:06:12"
                    },
                    {
                        "type": "18",
                        "value": "03YL5SYTU",
                        "source": "ATD",
                        "date": "2020-01-01T22:06:12"
                    }
                ]
            }
        },
        "tpaExtensions": [
            {
                "id": "HBSI",
                "extension": {}
            }
        ]
    }
}