{
    "roomStays": {
        "roomStay": [
            {
                "roomTypes": [
                    {
                        "roomType": {
                            "roomTypeCode": "POL2Q",
                            "numberOfUnits": "1",
                            "isRoom": "true"
                        }
                    }
                ],
                "ratePlans": [
                    {
                        "ratePlan": {
                            "ratePlanCode": "WI15L5",
                            "ratePlanId": "WI15L5",
                            "ratePlanName": "WI15L5"
                        }
                    }
                ],
                "roomRates": [
                    {
                        "roomRate": {
                            "numberOfUnits": "1",
                            "effectiveDate": "2020-08-19",
                            "expireDate": "2020-08-24",
                            "roomTypeCode": "POL2Q",
                            "ratePlanCode": "WI15L5",
                            "rates": [
                                {
                                    "rate": {
                                        "effectiveDate": "2020-08-19",
                                        "expireDate": "2020-08-21",
                                        "rateTimeUnit": "Day",
                                        "unitMultiplier": "2",
                                        "base": {
                                            "amountBeforeTax": "251.18",
                                            "amountAfterTax": "282.58",
                                            "currencyCode": "USD"
                                        },
                                        "total": {
                                            "amountBeforeTax": "502.36",
                                            "amountAfterTax": "565.16",
                                            "currencyCode": "USD"
                                        },
                                        "tpaExtensions": [
                                            {}
                                        ]
                                    }
                                },
                                {
                                    "rate": {
                                        "effectiveDate": "2020-08-21",
                                        "expireDate": "2020-08-23",
                                        "rateTimeUnit": "Day",
                                        "unitMultiplier": "2",
                                        "base": {
                                            "amountBeforeTax": "267.11",
                                            "amountAfterTax": "300.50",
                                            "currencyCode": "USD"
                                        },
                                        "total": {
                                            "amountBeforeTax": "534.22",
                                            "amountAfterTax": "601.00",
                                            "currencyCode": "USD"
                                        },
                                        "tpaExtensions": [
                                            {}
                                        ]
                                    }
                                },
                                {
                                    "rate": {
                                        "effectiveDate": "2020-08-23",
                                        "expireDate": "2020-08-24",
                                        "rateTimeUnit": "Day",
                                        "unitMultiplier": "1",
                                        "base": {
                                            "amountBeforeTax": "235.24",
                                            "amountAfterTax": "264.64",
                                            "currencyCode": "USD"
                                        },
                                        "total": {
                                            "amountBeforeTax": "235.24",
                                            "amountAfterTax": "264.64",
                                            "currencyCode": "USD"
                                        },
                                        "tpaExtensions": [
                                            {}
                                        ]
                                    }
                                }
                            ]
                        }
                    }
                ],
                "guestCounts": [
                    {
                        "guestCount": {
                            "ageQualifyingCode": null,
                            "age": "10",
                            "count": "1"
                        }
                    },
                    {
                        "guestCount": {
                            "ageQualifyingCode": null,
                            "age": "-1",
                            "count": "2"
                        }
                    },
                    {
                        "guestCount": {
                            "ageQualifyingCode": null,
                            "age": "7",
                            "count": "1"
                        }
                    }
                ],
                "timeSpan": {
                    "start": "2020-08-19",
                    "end": "2020-08-24",
                    "duration": "P5N"
                },
                "depositPayments": null,
                "cancelPenalties": [],
                "total": {
                    "amountBeforeTax": "1271.82",
                    "amountAfterTax": "1430.80",
                    "currencyCode": "USD"
                },
                "basicPropertyInfo": {
                    "hotelCode": "46513",
                    "hotelCityCode": "MCO"
                },
                "serviceRphs": null,
                "resGuestRphs": [
                    {
                        "resGuestRph": {
                            "rph": 1
                        }
                    },
                    {
                        "resGuestRph": {
                            "rph": 2
                        }
                    },
                    {
                        "resGuestRph": {
                            "rph": 3
                        }
                    },
                    {
                        "resGuestRph": {
                            "rph": 4
                        }
                    }
                ]
            }
        ]
    },
    "resGuests": [
        {
            "resGuestRph": "1",
            "age": "-1",
            "profiles": {
                "profileInfo": {
                    "profile": {
                        "profileType": "1",
                        "customer": {
                            "gender": "Unknown",
                            "personName": {
                                "givenName": "Klaus",
                                "surname": "Linhart"
                            }
                        }
                    }
                }
            }
        },
        {
            "resGuestRph": "2",
            "age": "-1",
            "profiles": {
                "profileInfo": {
                    "profile": {
                        "profileType": "1",
                        "customer": {
                            "gender": "Unknown",
                            "personName": {
                                "givenName": "Nicole",
                                "surname": "Linhart"
                            }
                        }
                    }
                }
            }
        },
        {
            "resGuestRph": "3",
            "age": "10",
            "profiles": {
                "profileInfo": {
                    "profile": {
                        "profileType": "1",
                        "customer": {
                            "gender": "Unknown",
                            "personName": {
                                "givenName": "Lukas",
                                "surname": "Linhart"
                            }
                        }
                    }
                }
            }
        },
        {
            "resGuestRph": "4",
            "age": "7",
            "profiles": {
                "profileInfo": {
                    "profile": {
                        "profileType": "1",
                        "customer": {
                            "gender": "Unknown",
                            "personName": {
                                "givenName": "Tim",
                                "surname": "Linhart"
                            }
                        }
                    }
                }
            }
        }
    ],
    "resGlobalInfo": {
        "hotelReservationIds": {
            "hotelReservationId": [
                {
                    "type": "8",
                    "value": "HRH0NT2RJl",
                    "source": "HBSI",
                    "date": "2020-01-06T19:29:28"
                },
                {
                    "type": "14",
                    "value": "ATD-1718906",
                    "source": "ATD",
                    "date": "2020-01-06T19:29:28"
                },
                {
                    "type": "18",
                    "value": "S39L50S0S",
                    "source": "ATD",
                    "date": "2020-01-06T19:29:28"
                }
            ]
        }
    }
}