{
    "roomStays": {
        "roomStay": [
            {
                "roomTypes": [
                    {
                        "roomType": {
                            "roomTypeCode": "STES3Q",
                            "numberOfUnits": "1",
                            "isRoom": "true"
                        }
                    }
                ],
                "ratePlans": [
                    {
                        "ratePlan": {
                            "ratePlanCode": "WI15L7",
                            "ratePlanId": "WI15L7",
                            "ratePlanName": "WI15L7"
                        }
                    }
                ],
                "roomRates": [
                    {
                        "roomRate": {
                            "numberOfUnits": "1",
                            "effectiveDate": "2020-10-28",
                            "expireDate": "2020-10-30",
                            "roomTypeCode": "STES3Q",
                            "ratePlanCode": "WI15L7",
                            "rates": [
                                {
                                    "rate": {
                                        "effectiveDate": "2020-10-28",
                                        "expireDate": "2020-10-30",
                                        "rateTimeUnit": "Day",
                                        "unitMultiplier": "2",
                                        "base": {
                                            "amountBeforeTax": "115.43",
                                            "amountAfterTax": "129.86",
                                            "currencyCode": "USD"
                                        },
                                        "total": {
                                            "amountBeforeTax": "230.86",
                                            "amountAfterTax": "259.72",
                                            "currencyCode": "USD"
                                        },
                                        "tpaExtensions": [
                                            {}
                                        ]
                                    }
                                }
                            ]
                        }
                    }
                ],
                "guestCounts": [
                    {
                        "guestCount": {
                            "ageQualifyingCode": null,
                            "age": "-1",
                            "count": "6"
                        }
                    }
                ],
                "timeSpan": {
                    "start": "2020-10-28",
                    "end": "2020-10-30",
                    "duration": "P2N"
                },
                "depositPayments": null,
                "cancelPenalties": [],
                "total": {
                    "amountBeforeTax": "230.86",
                    "amountAfterTax": "259.72",
                    "currencyCode": "USD"
                },
                "basicPropertyInfo": {
                    "hotelCode": "78256",
                    "hotelCityCode": "MCO"
                },
                "serviceRphs": null,
                "resGuestRphs": [
                    {
                        "resGuestRph": {
                            "rph": 1
                        }
                    },
                    {
                        "resGuestRph": {
                            "rph": 2
                        }
                    },
                    {
                        "resGuestRph": {
                            "rph": 3
                        }
                    },
                    {
                        "resGuestRph": {
                            "rph": 4
                        }
                    },
                    {
                        "resGuestRph": {
                            "rph": 5
                        }
                    },
                    {
                        "resGuestRph": {
                            "rph": 6
                        }
                    }
                ]
            }
        ]
    },
    "resGuests": [
        {
            "resGuestRph": "1",
            "age": "-1",
            "profiles": {
                "profileInfo": {
                    "profile": {
                        "profileType": "1",
                        "customer": {
                            "gender": "Unknown",
                            "personName": {
                                "givenName": "Ellen",
                                "surname": "Lusby"
                            }
                        }
                    }
                }
            }
        },
        {
            "resGuestRph": "2",
            "age": "-1",
            "profiles": {
                "profileInfo": {
                    "profile": {
                        "profileType": "1",
                        "customer": {
                            "gender": "Unknown",
                            "personName": {
                                "givenName": "Bradley",
                                "surname": "Gibb"
                            }
                        }
                    }
                }
            }
        },
        {
            "resGuestRph": "3",
            "age": "-1",
            "profiles": {
                "profileInfo": {
                    "profile": {
                        "profileType": "1",
                        "customer": {
                            "gender": "Unknown",
                            "personName": {
                                "givenName": "Conor",
                                "surname": "Carre"
                            }
                        }
                    }
                }
            }
        },
        {
            "resGuestRph": "4",
            "age": "-1",
            "profiles": {
                "profileInfo": {
                    "profile": {
                        "profileType": "1",
                        "customer": {
                            "gender": "Unknown",
                            "personName": {
                                "givenName": "James",
                                "surname": "Craven"
                            }
                        }
                    }
                }
            }
        },
        {
            "resGuestRph": "5",
            "age": "-1",
            "profiles": {
                "profileInfo": {
                    "profile": {
                        "profileType": "1",
                        "customer": {
                            "gender": "Unknown",
                            "personName": {
                                "givenName": "Beth",
                                "surname": "Lusby"
                            }
                        }
                    }
                }
            }
        },
        {
            "resGuestRph": "6",
            "age": "-1",
            "profiles": {
                "profileInfo": {
                    "profile": {
                        "profileType": "1",
                        "customer": {
                            "gender": "Unknown",
                            "personName": {
                                "givenName": "Kathryn",
                                "surname": "Lusby"
                            }
                        }
                    }
                }
            }
        }
    ],
    "resGlobalInfo": {
        "hotelReservationIds": {
            "hotelReservationId": [
                {
                    "type": "8",
                    "value": "ESSsE2UFRw",
                    "source": "HBSI",
                    "date": "2019-12-28T17:50:23"
                },
                {
                    "type": "14",
                    "value": "ATD-1712540",
                    "source": "ATD",
                    "date": "2019-12-28T17:50:23"
                },
                {
                    "type": "18",
                    "value": "03YL54BFV",
                    "source": "ATD",
                    "date": "2019-12-28T17:50:23"
                }
            ]
        }
    }
}