{
    "roomStays": {
        "roomStay": [
            {
                "roomTypes": [
                    {
                        "roomType": {
                            "roomTypeCode": "STD2Q",
                            "numberOfUnits": "1",
                            "isRoom": "true"
                        }
                    }
                ],
                "ratePlans": [
                    {
                        "ratePlan": {
                            "ratePlanCode": "WI15L4",
                            "ratePlanId": "WI15L4",
                            "ratePlanName": "WI15L4"
                        }
                    }
                ],
                "roomRates": [
                    {
                        "roomRate": {
                            "numberOfUnits": "1",
                            "effectiveDate": "2020-10-27",
                            "expireDate": "2020-10-31",
                            "roomTypeCode": "STD2Q",
                            "ratePlanCode": "WI15L4",
                            "rates": [
                                {
                                    "rate": {
                                        "effectiveDate": "2020-10-27",
                                        "expireDate": "2020-10-30",
                                        "rateTimeUnit": "Day",
                                        "unitMultiplier": "3",
                                        "base": {
                                            "amountBeforeTax": "230.52",
                                            "amountAfterTax": "259.33",
                                            "currencyCode": "USD"
                                        },
                                        "total": {
                                            "amountBeforeTax": "691.56",
                                            "amountAfterTax": "777.99",
                                            "currencyCode": "USD"
                                        },
                                        "tpaExtensions": [
                                            {}
                                        ]
                                    }
                                },
                                {
                                    "rate": {
                                        "effectiveDate": "2020-10-30",
                                        "expireDate": "2020-10-31",
                                        "rateTimeUnit": "Day",
                                        "unitMultiplier": "1",
                                        "base": {
                                            "amountBeforeTax": "254.32",
                                            "amountAfterTax": "286.11",
                                            "currencyCode": "USD"
                                        },
                                        "total": {
                                            "amountBeforeTax": "254.32",
                                            "amountAfterTax": "286.11",
                                            "currencyCode": "USD"
                                        },
                                        "tpaExtensions": [
                                            {}
                                        ]
                                    }
                                }
                            ]
                        }
                    }
                ],
                "guestCounts": [
                    {
                        "guestCount": {
                            "ageQualifyingCode": null,
                            "age": "8",
                            "count": "1"
                        }
                    },
                    {
                        "guestCount": {
                            "ageQualifyingCode": null,
                            "age": "-1",
                            "count": "2"
                        }
                    }
                ],
                "timeSpan": {
                    "start": "2020-10-27",
                    "end": "2020-10-31",
                    "duration": "P4N"
                },
                "depositPayments": null,
                "cancelPenalties": [],
                "total": {
                    "amountBeforeTax": "945.88",
                    "amountAfterTax": "1064.10",
                    "currencyCode": "USD"
                },
                "basicPropertyInfo": {
                    "hotelCode": "46514",
                    "hotelCityCode": "MCO"
                },
                "serviceRphs": null,
                "resGuestRphs": [
                    {
                        "resGuestRph": {
                            "rph": 1
                        }
                    },
                    {
                        "resGuestRph": {
                            "rph": 2
                        }
                    },
                    {
                        "resGuestRph": {
                            "rph": 3
                        }
                    }
                ]
            }
        ]
    },
    "resGuests": [
        {
            "resGuestRph": "1",
            "age": "-1",
            "profiles": {
                "profileInfo": {
                    "profile": {
                        "profileType": "1",
                        "customer": {
                            "gender": "Unknown",
                            "personName": {
                                "givenName": "Stuart",
                                "surname": "Kelly"
                            }
                        }
                    }
                }
            }
        },
        {
            "resGuestRph": "2",
            "age": "-1",
            "profiles": {
                "profileInfo": {
                    "profile": {
                        "profileType": "1",
                        "customer": {
                            "gender": "Unknown",
                            "personName": {
                                "givenName": "Lucy",
                                "surname": "Kelly"
                            }
                        }
                    }
                }
            }
        },
        {
            "resGuestRph": "3",
            "age": "8",
            "profiles": {
                "profileInfo": {
                    "profile": {
                        "profileType": "1",
                        "customer": {
                            "gender": "Unknown",
                            "personName": {
                                "givenName": "Imogen",
                                "surname": "Kelly"
                            }
                        }
                    }
                }
            }
        }
    ],
    "resGlobalInfo": {
        "hotelReservationIds": {
            "hotelReservationId": [
                {
                    "type": "8",
                    "value": "RPRgrln9mR",
                    "source": "HBSI",
                    "date": "2019-12-10T19:09:11"
                },
                {
                    "type": "14",
                    "value": "ATD-1706915",
                    "source": "ATD",
                    "date": "2019-12-10T19:09:11"
                },
                {
                    "type": "18",
                    "value": "S3DL5W2W9",
                    "source": "ATD",
                    "date": "2019-12-10T19:09:11"
                }
            ]
        }
    }
}