{
    "roomStays": {
        "roomStay": [
            {
                "roomTypes": [
                    {
                        "roomType": {
                            "roomTypeCode": "STES3Q",
                            "numberOfUnits": "1",
                            "isRoom": "true"
                        }
                    }
                ],
                "ratePlans": [
                    {
                        "ratePlan": {
                            "ratePlanCode": "WI15L7",
                            "ratePlanId": "WI15L7",
                            "ratePlanName": "WI15L7"
                        }
                    }
                ],
                "roomRates": [
                    {
                        "roomRate": {
                            "numberOfUnits": "1",
                            "effectiveDate": "2020-08-31",
                            "expireDate": "2020-09-07",
                            "roomTypeCode": "STES3Q",
                            "ratePlanCode": "WI15L7",
                            "rates": [
                                {
                                    "rate": {
                                        "effectiveDate": "2020-08-31",
                                        "expireDate": "2020-09-04",
                                        "rateTimeUnit": "Day",
                                        "unitMultiplier": "4",
                                        "base": {
                                            "amountBeforeTax": "107.36",
                                            "amountAfterTax": "120.78",
                                            "currencyCode": "USD"
                                        },
                                        "total": {
                                            "amountBeforeTax": "429.44",
                                            "amountAfterTax": "483.12",
                                            "currencyCode": "USD"
                                        },
                                        "tpaExtensions": [
                                            {}
                                        ]
                                    }
                                },
                                {
                                    "rate": {
                                        "effectiveDate": "2020-09-04",
                                        "expireDate": "2020-09-06",
                                        "rateTimeUnit": "Day",
                                        "unitMultiplier": "2",
                                        "base": {
                                            "amountBeforeTax": "116.28",
                                            "amountAfterTax": "130.82",
                                            "currencyCode": "USD"
                                        },
                                        "total": {
                                            "amountBeforeTax": "232.56",
                                            "amountAfterTax": "261.64",
                                            "currencyCode": "USD"
                                        },
                                        "tpaExtensions": [
                                            {}
                                        ]
                                    }
                                },
                                {
                                    "rate": {
                                        "effectiveDate": "2020-09-06",
                                        "expireDate": "2020-09-07",
                                        "rateTimeUnit": "Day",
                                        "unitMultiplier": "1",
                                        "base": {
                                            "amountBeforeTax": "107.36",
                                            "amountAfterTax": "120.78",
                                            "currencyCode": "USD"
                                        },
                                        "total": {
                                            "amountBeforeTax": "107.36",
                                            "amountAfterTax": "120.78",
                                            "currencyCode": "USD"
                                        },
                                        "tpaExtensions": [
                                            {}
                                        ]
                                    }
                                }
                            ]
                        }
                    }
                ],
                "guestCounts": [
                    {
                        "guestCount": {
                            "ageQualifyingCode": null,
                            "age": "3",
                            "count": "1"
                        }
                    },
                    {
                        "guestCount": {
                            "ageQualifyingCode": null,
                            "age": "-1",
                            "count": "3"
                        }
                    },
                    {
                        "guestCount": {
                            "ageQualifyingCode": null,
                            "age": "7",
                            "count": "1"
                        }
                    }
                ],
                "timeSpan": {
                    "start": "2020-08-31",
                    "end": "2020-09-07",
                    "duration": "P7N"
                },
                "depositPayments": null,
                "cancelPenalties": [],
                "total": {
                    "amountBeforeTax": "769.36",
                    "amountAfterTax": "865.54",
                    "currencyCode": "USD"
                },
                "basicPropertyInfo": {
                    "hotelCode": "78694",
                    "hotelCityCode": "MCO"
                },
                "serviceRphs": null,
                "resGuestRphs": [
                    {
                        "resGuestRph": {
                            "rph": 1
                        }
                    },
                    {
                        "resGuestRph": {
                            "rph": 2
                        }
                    },
                    {
                        "resGuestRph": {
                            "rph": 3
                        }
                    },
                    {
                        "resGuestRph": {
                            "rph": 4
                        }
                    },
                    {
                        "resGuestRph": {
                            "rph": 5
                        }
                    }
                ]
            }
        ]
    },
    "resGuests": [
        {
            "resGuestRph": "1",
            "age": "-1",
            "profiles": {
                "profileInfo": {
                    "profile": {
                        "profileType": "1",
                        "customer": {
                            "gender": "Unknown",
                            "personName": {
                                "givenName": "Michael",
                                "surname": "John Byron"
                            }
                        }
                    }
                }
            }
        },
        {
            "resGuestRph": "2",
            "age": "-1",
            "profiles": {
                "profileInfo": {
                    "profile": {
                        "profileType": "1",
                        "customer": {
                            "gender": "Unknown",
                            "personName": {
                                "givenName": "Lauren-ann",
                                "surname": "Byron"
                            }
                        }
                    }
                }
            }
        },
        {
            "resGuestRph": "3",
            "age": "-1",
            "profiles": {
                "profileInfo": {
                    "profile": {
                        "profileType": "1",
                        "customer": {
                            "gender": "Unknown",
                            "personName": {
                                "givenName": "Lesley",
                                "surname": "Hulton"
                            }
                        }
                    }
                }
            }
        },
        {
            "resGuestRph": "4",
            "age": "7",
            "profiles": {
                "profileInfo": {
                    "profile": {
                        "profileType": "1",
                        "customer": {
                            "gender": "Unknown",
                            "personName": {
                                "givenName": "Mila",
                                "surname": "Patricia Hulton-Byron"
                            }
                        }
                    }
                }
            }
        },
        {
            "resGuestRph": "5",
            "age": "3",
            "profiles": {
                "profileInfo": {
                    "profile": {
                        "profileType": "1",
                        "customer": {
                            "gender": "Unknown",
                            "personName": {
                                "givenName": "Hattie",
                                "surname": "Mary Byron"
                            }
                        }
                    }
                }
            }
        }
    ],
    "resGlobalInfo": {
        "hotelReservationIds": {
            "hotelReservationId": [
                {
                    "type": "8",
                    "value": "ESD9v6xY9d",
                    "source": "HBSI",
                    "date": "2020-01-07T21:46:12"
                },
                {
                    "type": "14",
                    "value": "ATD-1719861",
                    "source": "ATD",
                    "date": "2020-01-07T21:46:12"
                },
                {
                    "type": "18",
                    "value": "H4EL5HES6",
                    "source": "ATD",
                    "date": "2020-01-07T21:46:12"
                }
            ]
        }
    }
}