{
    "_RESPONSE": {
        "roomStayReservation": "true",
        "createDateTime": "2020-01-16T17:26:10",
        "creatorId": null,
        "resStatus": "Cancel",
        "uniqueId": {
            "type": "8",
            "id": "ESDVuiKtbS"
        },
        "roomStays": {
            "roomStays": [
                {
                    "roomStay": {
                        "roomTypes": [
                            {
                                "roomType": {
                                    "roomTypeCode": "STD2Q",
                                    "numberOfUnits": "1",
                                    "isRoom": "true"
                                }
                            }
                        ],
                        "ratePlans": [
                            {
                                "ratePlan": {
                                    "ratePlanCode": "WI15L4",
                                    "ratePlanId": "WI15L4",
                                    "ratePlanName": "WI15L4"
                                }
                            }
                        ],
                        "roomRates": [
                            {
                                "roomRate": {
                                    "numberOfUnits": "1",
                                    "effectiveDate": "2020-04-15",
                                    "expireDate": "2020-04-19",
                                    "roomTypeCode": "STD2Q",
                                    "ratePlanCode": "WI15L4",
                                    "rates": [
                                        {
                                            "rate": {
                                                "effectiveDate": "2020-04-15",
                                                "expireDate": "2020-04-19",
                                                "rateTimeUnit": "Day",
                                                "unitMultiplier": "4",
                                                "base": {
                                                    "amountBeforeTax": "163.71",
                                                    "amountAfterTax": "184.17",
                                                    "currencyCode": "USD"
                                                },
                                                "total": {
                                                    "amountBeforeTax": "654.84",
                                                    "amountAfterTax": "736.68",
                                                    "currencyCode": "USD"
                                                },
                                                "tpaExtensions": [
                                                    {}
                                                ]
                                            }
                                        }
                                    ]
                                }
                            }
                        ],
                        "guestCounts": [
                            {
                                "guestCount": {
                                    "ageQualifyingCode": null,
                                    "age": "10",
                                    "count": "1"
                                }
                            },
                            {
                                "guestCount": {
                                    "ageQualifyingCode": null,
                                    "age": "9",
                                    "count": "1"
                                }
                            },
                            {
                                "guestCount": {
                                    "ageQualifyingCode": null,
                                    "age": "-1",
                                    "count": "2"
                                }
                            }
                        ],
                        "timeSpan": {
                            "start": "2020-04-15",
                            "end": "2020-04-19",
                            "duration": "P4N"
                        },
                        "depositPayments": null,
                        "cancelPenalties": [],
                        "total": {
                            "amountBeforeTax": "654.84",
                            "amountAfterTax": "736.68",
                            "currencyCode": "USD"
                        },
                        "basicPropertyInfo": {
                            "hotelCode": "78694",
                            "hotelCityCode": "MCO"
                        },
                        "serviceRphs": null
                    }
                }
            ]
        },
        "resGuests": [
            {
                "resGuestRph": "1",
                "age": "-1",
                "profiles": {
                    "profileInfo": {
                        "profile": {
                            "profileType": "1",
                            "customer": {
                                "gender": "Unknown",
                                "personName": {
                                    "givenName": "Mr",
                                    "surname": "Lionel SAUZEDDE"
                                }
                            }
                        }
                    }
                }
            },
            {
                "resGuestRph": "2",
                "age": "-1",
                "profiles": {
                    "profileInfo": {
                        "profile": {
                            "profileType": "1",
                            "customer": {
                                "gender": "Unknown",
                                "personName": {
                                    "givenName": "Mrs",
                                    "surname": "SAUZEDDE Veronique"
                                }
                            }
                        }
                    }
                }
            },
            {
                "resGuestRph": "3",
                "age": "10",
                "profiles": {
                    "profileInfo": {
                        "profile": {
                            "profileType": "1",
                            "customer": {
                                "gender": "Unknown",
                                "personName": {
                                    "givenName": "Mrs",
                                    "surname": "SAUZEDDE Laurine"
                                }
                            }
                        }
                    }
                }
            },
            {
                "resGuestRph": "4",
                "age": "9",
                "profiles": {
                    "profileInfo": {
                        "profile": {
                            "profileType": "1",
                            "customer": {
                                "gender": "Unknown",
                                "personName": {
                                    "givenName": "Mr",
                                    "surname": "SAUZEDDE Clement"
                                }
                            }
                        }
                    }
                }
            }
        ],
        "resGlobalInfo": {
            "hotelReservationIds": {
                "hotelReservationId": [
                    {
                        "type": "8",
                        "value": "ESDVuiKtbS",
                        "source": "HBSI",
                        "date": "2020-01-16T17:26:10"
                    },
                    {
                        "type": "14",
                        "value": "ATD-1726926",
                        "source": "ATD",
                        "date": "2020-01-16T17:26:10"
                    },
                    {
                        "type": "18",
                        "value": "C$H4ELUA873",
                        "source": "ATD",
                        "date": "2020-01-16T17:26:10"
                    }
                ]
            }
        },
        "tpaExtensions": [
            {
                "id": "HBSI",
                "extension": {}
            }
        ]
    }
}