{
    "roomStays": {
        "roomStay": [
            {
                "roomTypes": [
                    {
                        "roomType": {
                            "roomTypeCode": "STD2Q",
                            "numberOfUnits": "1",
                            "isRoom": "true"
                        }
                    }
                ],
                "ratePlans": [
                    {
                        "ratePlan": {
                            "ratePlanCode": "WI15L3",
                            "ratePlanId": "WI15L3",
                            "ratePlanName": "WI15L3"
                        }
                    }
                ],
                "roomRates": [
                    {
                        "roomRate": {
                            "numberOfUnits": "1",
                            "effectiveDate": "2020-10-06",
                            "expireDate": "2020-10-09",
                            "roomTypeCode": "STD2Q",
                            "ratePlanCode": "WI15L3",
                            "rates": [
                                {
                                    "rate": {
                                        "effectiveDate": "2020-10-06",
                                        "expireDate": "2020-10-09",
                                        "rateTimeUnit": "Day",
                                        "unitMultiplier": "3",
                                        "base": {
                                            "amountBeforeTax": "106.34",
                                            "amountAfterTax": "119.63",
                                            "currencyCode": "USD"
                                        },
                                        "total": {
                                            "amountBeforeTax": "319.02",
                                            "amountAfterTax": "358.89",
                                            "currencyCode": "USD"
                                        },
                                        "tpaExtensions": [
                                            {}
                                        ]
                                    }
                                }
                            ]
                        }
                    }
                ],
                "guestCounts": [
                    {
                        "guestCount": {
                            "ageQualifyingCode": null,
                            "age": "-1",
                            "count": "2"
                        }
                    }
                ],
                "timeSpan": {
                    "start": "2020-10-06",
                    "end": "2020-10-09",
                    "duration": "P3N"
                },
                "depositPayments": null,
                "cancelPenalties": [],
                "total": {
                    "amountBeforeTax": "319.02",
                    "amountAfterTax": "358.89",
                    "currencyCode": "USD"
                },
                "basicPropertyInfo": {
                    "hotelCode": "78256",
                    "hotelCityCode": "MCO"
                },
                "serviceRphs": null,
                "resGuestRphs": [
                    {
                        "resGuestRph": {
                            "rph": 1
                        }
                    },
                    {
                        "resGuestRph": {
                            "rph": 2
                        }
                    }
                ]
            }
        ]
    },
    "resGuests": [
        {
            "resGuestRph": "1",
            "age": "-1",
            "profiles": {
                "profileInfo": {
                    "profile": {
                        "profileType": "1",
                        "customer": {
                            "gender": "Unknown",
                            "personName": {
                                "givenName": "Claire",
                                "surname": "Currie"
                            }
                        }
                    }
                }
            }
        },
        {
            "resGuestRph": "2",
            "age": "-1",
            "profiles": {
                "profileInfo": {
                    "profile": {
                        "profileType": "1",
                        "customer": {
                            "gender": "Unknown",
                            "personName": {
                                "givenName": "Duncan",
                                "surname": "Currie"
                            }
                        }
                    }
                }
            }
        }
    ],
    "resGlobalInfo": {
        "hotelReservationIds": {
            "hotelReservationId": [
                {
                    "type": "8",
                    "value": "ESSgtj245G",
                    "source": "HBSI",
                    "date": "2020-01-17T07:35:41"
                },
                {
                    "type": "14",
                    "value": "ATD-1727246",
                    "source": "ATD",
                    "date": "2020-01-17T07:35:41"
                },
                {
                    "type": "18",
                    "value": "03YLUAX2E",
                    "source": "ATD",
                    "date": "2020-01-17T07:35:41"
                }
            ]
        }
    }
}