{
    "roomStays": {
        "roomStay": [
            {
                "roomTypes": [
                    {
                        "roomType": {
                            "roomTypeCode": "STD2Q",
                            "numberOfUnits": "1",
                            "isRoom": "true"
                        }
                    }
                ],
                "ratePlans": [
                    {
                        "ratePlan": {
                            "ratePlanCode": "WIS15",
                            "ratePlanId": "WIS15",
                            "ratePlanName": "WIS15"
                        }
                    }
                ],
                "roomRates": [
                    {
                        "roomRate": {
                            "numberOfUnits": "1",
                            "effectiveDate": "2020-08-16",
                            "expireDate": "2020-08-18",
                            "roomTypeCode": "STD2Q",
                            "ratePlanCode": "WIS15",
                            "rates": [
                                {
                                    "rate": {
                                        "effectiveDate": "2020-08-16",
                                        "expireDate": "2020-08-18",
                                        "rateTimeUnit": "Day",
                                        "unitMultiplier": "2",
                                        "base": {
                                            "amountBeforeTax": "305.15",
                                            "amountAfterTax": "343.29",
                                            "currencyCode": "USD"
                                        },
                                        "total": {
                                            "amountBeforeTax": "610.30",
                                            "amountAfterTax": "686.58",
                                            "currencyCode": "USD"
                                        },
                                        "tpaExtensions": [
                                            {}
                                        ]
                                    }
                                }
                            ]
                        }
                    }
                ],
                "guestCounts": [
                    {
                        "guestCount": {
                            "ageQualifyingCode": null,
                            "age": "10",
                            "count": "1"
                        }
                    },
                    {
                        "guestCount": {
                            "ageQualifyingCode": null,
                            "age": "-1",
                            "count": "2"
                        }
                    },
                    {
                        "guestCount": {
                            "ageQualifyingCode": null,
                            "age": "14",
                            "count": "1"
                        }
                    }
                ],
                "timeSpan": {
                    "start": "2020-08-16",
                    "end": "2020-08-18",
                    "duration": "P2N"
                },
                "depositPayments": null,
                "cancelPenalties": [],
                "total": {
                    "amountBeforeTax": "610.30",
                    "amountAfterTax": "686.58",
                    "currencyCode": "USD"
                },
                "basicPropertyInfo": {
                    "hotelCode": "46513",
                    "hotelCityCode": "MCO"
                },
                "serviceRphs": null,
                "resGuestRphs": [
                    {
                        "resGuestRph": {
                            "rph": 1
                        }
                    },
                    {
                        "resGuestRph": {
                            "rph": 2
                        }
                    },
                    {
                        "resGuestRph": {
                            "rph": 3
                        }
                    },
                    {
                        "resGuestRph": {
                            "rph": 4
                        }
                    }
                ]
            }
        ]
    },
    "resGuests": [
        {
            "resGuestRph": "1",
            "age": "-1",
            "profiles": {
                "profileInfo": {
                    "profile": {
                        "profileType": "1",
                        "customer": {
                            "gender": "Unknown",
                            "personName": {
                                "givenName": "Sarah",
                                "surname": "Lines"
                            }
                        }
                    }
                }
            }
        },
        {
            "resGuestRph": "2",
            "age": "-1",
            "profiles": {
                "profileInfo": {
                    "profile": {
                        "profileType": "1",
                        "customer": {
                            "gender": "Unknown",
                            "personName": {
                                "givenName": "Mark",
                                "surname": "Oakeshott"
                            }
                        }
                    }
                }
            }
        },
        {
            "resGuestRph": "3",
            "age": "14",
            "profiles": {
                "profileInfo": {
                    "profile": {
                        "profileType": "1",
                        "customer": {
                            "gender": "Unknown",
                            "personName": {
                                "givenName": "Jake",
                                "surname": "Oakeshott"
                            }
                        }
                    }
                }
            }
        },
        {
            "resGuestRph": "4",
            "age": "10",
            "profiles": {
                "profileInfo": {
                    "profile": {
                        "profileType": "1",
                        "customer": {
                            "gender": "Unknown",
                            "personName": {
                                "givenName": "Holly",
                                "surname": "Oakeshott"
                            }
                        }
                    }
                }
            }
        }
    ],
    "resGlobalInfo": {
        "hotelReservationIds": {
            "hotelReservationId": [
                {
                    "type": "8",
                    "value": "HRHZWOBcnH",
                    "source": "HBSI",
                    "date": "2020-01-01T19:16:12"
                },
                {
                    "type": "14",
                    "value": "ATD-1714772",
                    "source": "ATD",
                    "date": "2020-01-01T19:16:12"
                },
                {
                    "type": "18",
                    "value": "S39L5SAP7",
                    "source": "ATD",
                    "date": "2020-01-01T19:16:12"
                }
            ]
        }
    }
}