{
    "roomStays": {
        "roomStay": [
            {
                "roomTypes": [
                    {
                        "roomType": {
                            "roomTypeCode": "STD2Q",
                            "numberOfUnits": "1",
                            "isRoom": "true"
                        }
                    }
                ],
                "ratePlans": [
                    {
                        "ratePlan": {
                            "ratePlanCode": "WI15L7",
                            "ratePlanId": "WI15L7",
                            "ratePlanName": "WI15L7"
                        }
                    }
                ],
                "roomRates": [
                    {
                        "roomRate": {
                            "numberOfUnits": "1",
                            "effectiveDate": "2021-05-20",
                            "expireDate": "2021-05-27",
                            "roomTypeCode": "STD2Q",
                            "ratePlanCode": "WI15L7",
                            "rates": [
                                {
                                    "rate": {
                                        "effectiveDate": "2021-05-20",
                                        "expireDate": "2021-05-21",
                                        "rateTimeUnit": "Day",
                                        "unitMultiplier": "1",
                                        "base": {
                                            "amountBeforeTax": "76.76",
                                            "amountAfterTax": "86.36",
                                            "currencyCode": "USD"
                                        },
                                        "total": {
                                            "amountBeforeTax": "76.76",
                                            "amountAfterTax": "86.36",
                                            "currencyCode": "USD"
                                        },
                                        "tpaExtensions": [
                                            {}
                                        ]
                                    }
                                },
                                {
                                    "rate": {
                                        "effectiveDate": "2021-05-21",
                                        "expireDate": "2021-05-23",
                                        "rateTimeUnit": "Day",
                                        "unitMultiplier": "2",
                                        "base": {
                                            "amountBeforeTax": "89.25",
                                            "amountAfterTax": "100.41",
                                            "currencyCode": "USD"
                                        },
                                        "total": {
                                            "amountBeforeTax": "178.50",
                                            "amountAfterTax": "200.82",
                                            "currencyCode": "USD"
                                        },
                                        "tpaExtensions": [
                                            {}
                                        ]
                                    }
                                },
                                {
                                    "rate": {
                                        "effectiveDate": "2021-05-23",
                                        "expireDate": "2021-05-27",
                                        "rateTimeUnit": "Day",
                                        "unitMultiplier": "4",
                                        "base": {
                                            "amountBeforeTax": "76.76",
                                            "amountAfterTax": "86.36",
                                            "currencyCode": "USD"
                                        },
                                        "total": {
                                            "amountBeforeTax": "307.04",
                                            "amountAfterTax": "345.44",
                                            "currencyCode": "USD"
                                        },
                                        "tpaExtensions": [
                                            {}
                                        ]
                                    }
                                }
                            ]
                        }
                    }
                ],
                "guestCounts": [
                    {
                        "guestCount": {
                            "ageQualifyingCode": null,
                            "age": "6",
                            "count": "1"
                        }
                    },
                    {
                        "guestCount": {
                            "ageQualifyingCode": null,
                            "age": "10",
                            "count": "1"
                        }
                    },
                    {
                        "guestCount": {
                            "ageQualifyingCode": null,
                            "age": "-1",
                            "count": "2"
                        }
                    }
                ],
                "timeSpan": {
                    "start": "2021-05-20",
                    "end": "2021-05-27",
                    "duration": "P7N"
                },
                "depositPayments": null,
                "cancelPenalties": [],
                "total": {
                    "amountBeforeTax": "562.30",
                    "amountAfterTax": "632.62",
                    "currencyCode": "USD"
                },
                "basicPropertyInfo": {
                    "hotelCode": "78256",
                    "hotelCityCode": "MCO"
                },
                "serviceRphs": null,
                "resGuestRphs": [
                    {
                        "resGuestRph": {
                            "rph": 1
                        }
                    },
                    {
                        "resGuestRph": {
                            "rph": 2
                        }
                    },
                    {
                        "resGuestRph": {
                            "rph": 3
                        }
                    },
                    {
                        "resGuestRph": {
                            "rph": 4
                        }
                    }
                ]
            }
        ]
    },
    "resGuests": [
        {
            "resGuestRph": "1",
            "age": "-1",
            "profiles": {
                "profileInfo": {
                    "profile": {
                        "profileType": "1",
                        "customer": {
                            "gender": "Unknown",
                            "personName": {
                                "givenName": "Alan",
                                "surname": "Eldridge"
                            }
                        }
                    }
                }
            }
        },
        {
            "resGuestRph": "2",
            "age": "-1",
            "profiles": {
                "profileInfo": {
                    "profile": {
                        "profileType": "1",
                        "customer": {
                            "gender": "Unknown",
                            "personName": {
                                "givenName": "Rebecca",
                                "surname": "Eldridge"
                            }
                        }
                    }
                }
            }
        },
        {
            "resGuestRph": "3",
            "age": "10",
            "profiles": {
                "profileInfo": {
                    "profile": {
                        "profileType": "1",
                        "customer": {
                            "gender": "Unknown",
                            "personName": {
                                "givenName": "Lily",
                                "surname": "Eldridge"
                            }
                        }
                    }
                }
            }
        },
        {
            "resGuestRph": "4",
            "age": "6",
            "profiles": {
                "profileInfo": {
                    "profile": {
                        "profileType": "1",
                        "customer": {
                            "gender": "Unknown",
                            "personName": {
                                "givenName": "Teddy",
                                "surname": "Eldridge"
                            }
                        }
                    }
                }
            }
        }
    ],
    "resGlobalInfo": {
        "hotelReservationIds": {
            "hotelReservationId": [
                {
                    "type": "8",
                    "value": "ESSe7HwpZZ",
                    "source": "HBSI",
                    "date": "2020-01-20T13:41:20"
                },
                {
                    "type": "14",
                    "value": "ATD-1728709",
                    "source": "ATD",
                    "date": "2020-01-20T13:41:20"
                },
                {
                    "type": "18",
                    "value": "03YLUQWWQ",
                    "source": "ATD",
                    "date": "2020-01-20T13:41:20"
                }
            ]
        }
    }
}