{
    "roomStays": {
        "roomStay": [
            {
                "roomTypes": [
                    {
                        "roomType": {
                            "roomTypeCode": "STD2Q",
                            "numberOfUnits": "1",
                            "isRoom": "true"
                        }
                    }
                ],
                "ratePlans": [
                    {
                        "ratePlan": {
                            "ratePlanCode": "WI15L5",
                            "ratePlanId": "WI15L5",
                            "ratePlanName": "WI15L5"
                        }
                    }
                ],
                "roomRates": [
                    {
                        "roomRate": {
                            "numberOfUnits": "1",
                            "effectiveDate": "2020-09-21",
                            "expireDate": "2020-09-26",
                            "roomTypeCode": "STD2Q",
                            "ratePlanCode": "WI15L5",
                            "rates": [
                                {
                                    "rate": {
                                        "effectiveDate": "2020-09-21",
                                        "expireDate": "2020-09-25",
                                        "rateTimeUnit": "Day",
                                        "unitMultiplier": "4",
                                        "base": {
                                            "amountBeforeTax": "66.30",
                                            "amountAfterTax": "74.59",
                                            "currencyCode": "USD"
                                        },
                                        "total": {
                                            "amountBeforeTax": "265.20",
                                            "amountAfterTax": "298.36",
                                            "currencyCode": "USD"
                                        },
                                        "tpaExtensions": [
                                            {}
                                        ]
                                    }
                                },
                                {
                                    "rate": {
                                        "effectiveDate": "2020-09-25",
                                        "expireDate": "2020-09-26",
                                        "rateTimeUnit": "Day",
                                        "unitMultiplier": "1",
                                        "base": {
                                            "amountBeforeTax": "104.55",
                                            "amountAfterTax": "117.62",
                                            "currencyCode": "USD"
                                        },
                                        "total": {
                                            "amountBeforeTax": "104.55",
                                            "amountAfterTax": "117.62",
                                            "currencyCode": "USD"
                                        },
                                        "tpaExtensions": [
                                            {}
                                        ]
                                    }
                                }
                            ]
                        }
                    }
                ],
                "guestCounts": [
                    {
                        "guestCount": {
                            "ageQualifyingCode": null,
                            "age": "-1",
                            "count": "2"
                        }
                    }
                ],
                "timeSpan": {
                    "start": "2020-09-21",
                    "end": "2020-09-26",
                    "duration": "P5N"
                },
                "depositPayments": null,
                "cancelPenalties": [],
                "total": {
                    "amountBeforeTax": "369.75",
                    "amountAfterTax": "415.98",
                    "currencyCode": "USD"
                },
                "basicPropertyInfo": {
                    "hotelCode": "78694",
                    "hotelCityCode": "MCO"
                },
                "serviceRphs": null,
                "resGuestRphs": [
                    {
                        "resGuestRph": {
                            "rph": 1
                        }
                    },
                    {
                        "resGuestRph": {
                            "rph": 2
                        }
                    }
                ]
            }
        ]
    },
    "resGuests": [
        {
            "resGuestRph": "1",
            "age": "-1",
            "profiles": {
                "profileInfo": {
                    "profile": {
                        "profileType": "1",
                        "customer": {
                            "gender": "Unknown",
                            "personName": {
                                "givenName": "Gabriel",
                                "surname": "Neto"
                            }
                        }
                    }
                }
            }
        },
        {
            "resGuestRph": "2",
            "age": "-1",
            "profiles": {
                "profileInfo": {
                    "profile": {
                        "profileType": "1",
                        "customer": {
                            "gender": "Unknown",
                            "personName": {
                                "givenName": "Gabriel",
                                "surname": "Krejci"
                            }
                        }
                    }
                }
            }
        }
    ],
    "resGlobalInfo": {
        "hotelReservationIds": {
            "hotelReservationId": [
                {
                    "type": "8",
                    "value": "ESDF1oKNvZ",
                    "source": "HBSI",
                    "date": "2020-01-06T15:21:44"
                },
                {
                    "type": "14",
                    "value": "ATD-1718662",
                    "source": "ATD",
                    "date": "2020-01-06T15:21:44"
                },
                {
                    "type": "18",
                    "value": "H4EL5055Y",
                    "source": "ATD",
                    "date": "2020-01-06T15:21:44"
                }
            ]
        }
    }
}