{
    "roomStays": {
        "roomStay": [
            {
                "roomTypes": [
                    {
                        "roomType": {
                            "roomTypeCode": "STD2Q",
                            "numberOfUnits": "1",
                            "isRoom": "true"
                        }
                    }
                ],
                "ratePlans": [
                    {
                        "ratePlan": {
                            "ratePlanCode": "WI15L7",
                            "ratePlanId": "WI15L7",
                            "ratePlanName": "WI15L7"
                        }
                    }
                ],
                "roomRates": [
                    {
                        "roomRate": {
                            "numberOfUnits": "1",
                            "effectiveDate": "2020-10-12",
                            "expireDate": "2020-10-19",
                            "roomTypeCode": "STD2Q",
                            "ratePlanCode": "WI15L7",
                            "rates": [
                                {
                                    "rate": {
                                        "effectiveDate": "2020-10-12",
                                        "expireDate": "2020-10-16",
                                        "rateTimeUnit": "Day",
                                        "unitMultiplier": "4",
                                        "base": {
                                            "amountBeforeTax": "82.70",
                                            "amountAfterTax": "93.04",
                                            "currencyCode": "USD"
                                        },
                                        "total": {
                                            "amountBeforeTax": "330.80",
                                            "amountAfterTax": "372.16",
                                            "currencyCode": "USD"
                                        },
                                        "tpaExtensions": [
                                            {}
                                        ]
                                    }
                                },
                                {
                                    "rate": {
                                        "effectiveDate": "2020-10-16",
                                        "expireDate": "2020-10-18",
                                        "rateTimeUnit": "Day",
                                        "unitMultiplier": "2",
                                        "base": {
                                            "amountBeforeTax": "97.58",
                                            "amountAfterTax": "109.77",
                                            "currencyCode": "USD"
                                        },
                                        "total": {
                                            "amountBeforeTax": "195.16",
                                            "amountAfterTax": "219.54",
                                            "currencyCode": "USD"
                                        },
                                        "tpaExtensions": [
                                            {}
                                        ]
                                    }
                                },
                                {
                                    "rate": {
                                        "effectiveDate": "2020-10-18",
                                        "expireDate": "2020-10-19",
                                        "rateTimeUnit": "Day",
                                        "unitMultiplier": "1",
                                        "base": {
                                            "amountBeforeTax": "82.70",
                                            "amountAfterTax": "93.04",
                                            "currencyCode": "USD"
                                        },
                                        "total": {
                                            "amountBeforeTax": "82.70",
                                            "amountAfterTax": "93.04",
                                            "currencyCode": "USD"
                                        },
                                        "tpaExtensions": [
                                            {}
                                        ]
                                    }
                                }
                            ]
                        }
                    }
                ],
                "guestCounts": [
                    {
                        "guestCount": {
                            "ageQualifyingCode": null,
                            "age": "-1",
                            "count": "2"
                        }
                    }
                ],
                "timeSpan": {
                    "start": "2020-10-12",
                    "end": "2020-10-19",
                    "duration": "P7N"
                },
                "depositPayments": null,
                "cancelPenalties": [],
                "total": {
                    "amountBeforeTax": "608.66",
                    "amountAfterTax": "684.74",
                    "currencyCode": "USD"
                },
                "basicPropertyInfo": {
                    "hotelCode": "78256",
                    "hotelCityCode": "MCO"
                },
                "serviceRphs": null,
                "resGuestRphs": [
                    {
                        "resGuestRph": {
                            "rph": 1
                        }
                    },
                    {
                        "resGuestRph": {
                            "rph": 2
                        }
                    }
                ]
            }
        ]
    },
    "resGuests": [
        {
            "resGuestRph": "1",
            "age": "-1",
            "profiles": {
                "profileInfo": {
                    "profile": {
                        "profileType": "1",
                        "customer": {
                            "gender": "Unknown",
                            "personName": {
                                "givenName": "Laura",
                                "surname": "McGhee"
                            }
                        }
                    }
                }
            }
        },
        {
            "resGuestRph": "2",
            "age": "-1",
            "profiles": {
                "profileInfo": {
                    "profile": {
                        "profileType": "1",
                        "customer": {
                            "gender": "Unknown",
                            "personName": {
                                "givenName": "Sean",
                                "surname": "Cardis"
                            }
                        }
                    }
                }
            }
        }
    ],
    "resGlobalInfo": {
        "hotelReservationIds": {
            "hotelReservationId": [
                {
                    "type": "8",
                    "value": "ESSl4ZEvxn",
                    "source": "HBSI",
                    "date": "2020-01-22T14:41:12"
                },
                {
                    "type": "14",
                    "value": "ATD-1732737",
                    "source": "ATD",
                    "date": "2020-01-22T14:41:12"
                },
                {
                    "type": "18",
                    "value": "03YLUYK3P",
                    "source": "ATD",
                    "date": "2020-01-22T14:41:12"
                }
            ]
        }
    }
}