{
    "roomStays": {
        "roomStay": [
            {
                "roomTypes": [
                    {
                        "roomType": {
                            "roomTypeCode": "CLB2Q",
                            "numberOfUnits": "1",
                            "isRoom": "true"
                        }
                    }
                ],
                "ratePlans": [
                    {
                        "ratePlan": {
                            "ratePlanCode": "WI15L5",
                            "ratePlanId": "WI15L5",
                            "ratePlanName": "WI15L5"
                        }
                    }
                ],
                "roomRates": [
                    {
                        "roomRate": {
                            "numberOfUnits": "1",
                            "effectiveDate": "2020-08-08",
                            "expireDate": "2020-08-14",
                            "roomTypeCode": "CLB2Q",
                            "ratePlanCode": "WI15L5",
                            "rates": [
                                {
                                    "rate": {
                                        "effectiveDate": "2020-08-08",
                                        "expireDate": "2020-08-09",
                                        "rateTimeUnit": "Day",
                                        "unitMultiplier": "1",
                                        "base": {
                                            "amountBeforeTax": "502.90",
                                            "amountAfterTax": "565.76",
                                            "currencyCode": "USD"
                                        },
                                        "total": {
                                            "amountBeforeTax": "502.90",
                                            "amountAfterTax": "565.76",
                                            "currencyCode": "USD"
                                        },
                                        "tpaExtensions": [
                                            {}
                                        ]
                                    }
                                },
                                {
                                    "rate": {
                                        "effectiveDate": "2020-08-09",
                                        "expireDate": "2020-08-14",
                                        "rateTimeUnit": "Day",
                                        "unitMultiplier": "5",
                                        "base": {
                                            "amountBeforeTax": "342.55",
                                            "amountAfterTax": "385.37",
                                            "currencyCode": "USD"
                                        },
                                        "total": {
                                            "amountBeforeTax": "1712.75",
                                            "amountAfterTax": "1926.85",
                                            "currencyCode": "USD"
                                        },
                                        "tpaExtensions": [
                                            {}
                                        ]
                                    }
                                }
                            ]
                        }
                    }
                ],
                "guestCounts": [
                    {
                        "guestCount": {
                            "ageQualifyingCode": null,
                            "age": "-1",
                            "count": "3"
                        }
                    }
                ],
                "timeSpan": {
                    "start": "2020-08-08",
                    "end": "2020-08-14",
                    "duration": "P6N"
                },
                "depositPayments": null,
                "cancelPenalties": [],
                "total": {
                    "amountBeforeTax": "2215.65",
                    "amountAfterTax": "2492.61",
                    "currencyCode": "USD"
                },
                "basicPropertyInfo": {
                    "hotelCode": "46513",
                    "hotelCityCode": "MCO"
                },
                "serviceRphs": null,
                "resGuestRphs": [
                    {
                        "resGuestRph": {
                            "rph": 1
                        }
                    },
                    {
                        "resGuestRph": {
                            "rph": 2
                        }
                    },
                    {
                        "resGuestRph": {
                            "rph": 3
                        }
                    }
                ]
            }
        ]
    },
    "resGuests": [
        {
            "resGuestRph": "1",
            "age": "-1",
            "profiles": {
                "profileInfo": {
                    "profile": {
                        "profileType": "1",
                        "customer": {
                            "gender": "Unknown",
                            "personName": {
                                "givenName": "Susan",
                                "surname": "Folley"
                            }
                        }
                    }
                }
            }
        },
        {
            "resGuestRph": "2",
            "age": "-1",
            "profiles": {
                "profileInfo": {
                    "profile": {
                        "profileType": "1",
                        "customer": {
                            "gender": "Unknown",
                            "personName": {
                                "givenName": "Duncan",
                                "surname": "Folley"
                            }
                        }
                    }
                }
            }
        },
        {
            "resGuestRph": "3",
            "age": "-1",
            "profiles": {
                "profileInfo": {
                    "profile": {
                        "profileType": "1",
                        "customer": {
                            "gender": "Unknown",
                            "personName": {
                                "givenName": "Lauren",
                                "surname": "Folley"
                            }
                        }
                    }
                }
            }
        }
    ],
    "resGlobalInfo": {
        "hotelReservationIds": {
            "hotelReservationId": [
                {
                    "type": "8",
                    "value": "HRH18zlAiL",
                    "source": "HBSI",
                    "date": "2020-01-05T11:50:11"
                },
                {
                    "type": "14",
                    "value": "ATD-1717585",
                    "source": "ATD",
                    "date": "2020-01-05T11:50:11"
                },
                {
                    "type": "18",
                    "value": "S39L501UZ",
                    "source": "ATD",
                    "date": "2020-01-05T11:50:11"
                }
            ]
        }
    }
}