{
    "roomStays": {
        "roomStay": [
            {
                "roomTypes": [
                    {
                        "roomType": {
                            "roomTypeCode": "STD2Q",
                            "numberOfUnits": "1",
                            "isRoom": "true"
                        }
                    }
                ],
                "ratePlans": [
                    {
                        "ratePlan": {
                            "ratePlanCode": "WI15L3",
                            "ratePlanId": "WI15L3",
                            "ratePlanName": "WI15L3"
                        }
                    }
                ],
                "roomRates": [
                    {
                        "roomRate": {
                            "numberOfUnits": "1",
                            "effectiveDate": "2020-08-08",
                            "expireDate": "2020-08-11",
                            "roomTypeCode": "STD2Q",
                            "ratePlanCode": "WI15L3",
                            "rates": [
                                {
                                    "rate": {
                                        "effectiveDate": "2020-08-08",
                                        "expireDate": "2020-08-09",
                                        "rateTimeUnit": "Day",
                                        "unitMultiplier": "1",
                                        "base": {
                                            "amountBeforeTax": "364.65",
                                            "amountAfterTax": "410.23",
                                            "currencyCode": "USD"
                                        },
                                        "total": {
                                            "amountBeforeTax": "364.65",
                                            "amountAfterTax": "410.23",
                                            "currencyCode": "USD"
                                        },
                                        "tpaExtensions": [
                                            {}
                                        ]
                                    }
                                },
                                {
                                    "rate": {
                                        "effectiveDate": "2020-08-09",
                                        "expireDate": "2020-08-11",
                                        "rateTimeUnit": "Day",
                                        "unitMultiplier": "2",
                                        "base": {
                                            "amountBeforeTax": "251.69",
                                            "amountAfterTax": "283.15",
                                            "currencyCode": "USD"
                                        },
                                        "total": {
                                            "amountBeforeTax": "503.38",
                                            "amountAfterTax": "566.30",
                                            "currencyCode": "USD"
                                        },
                                        "tpaExtensions": [
                                            {}
                                        ]
                                    }
                                }
                            ]
                        }
                    }
                ],
                "guestCounts": [
                    {
                        "guestCount": {
                            "ageQualifyingCode": null,
                            "age": "5",
                            "count": "1"
                        }
                    },
                    {
                        "guestCount": {
                            "ageQualifyingCode": null,
                            "age": "9",
                            "count": "1"
                        }
                    },
                    {
                        "guestCount": {
                            "ageQualifyingCode": null,
                            "age": "-1",
                            "count": "2"
                        }
                    },
                    {
                        "guestCount": {
                            "ageQualifyingCode": null,
                            "age": "7",
                            "count": "1"
                        }
                    }
                ],
                "timeSpan": {
                    "start": "2020-08-08",
                    "end": "2020-08-11",
                    "duration": "P3N"
                },
                "depositPayments": null,
                "cancelPenalties": [],
                "total": {
                    "amountBeforeTax": "868.03",
                    "amountAfterTax": "976.53",
                    "currencyCode": "USD"
                },
                "basicPropertyInfo": {
                    "hotelCode": "46514",
                    "hotelCityCode": "MCO"
                },
                "serviceRphs": null,
                "resGuestRphs": [
                    {
                        "resGuestRph": {
                            "rph": 1
                        }
                    },
                    {
                        "resGuestRph": {
                            "rph": 2
                        }
                    },
                    {
                        "resGuestRph": {
                            "rph": 3
                        }
                    },
                    {
                        "resGuestRph": {
                            "rph": 4
                        }
                    },
                    {
                        "resGuestRph": {
                            "rph": 5
                        }
                    }
                ]
            }
        ]
    },
    "resGuests": [
        {
            "resGuestRph": "1",
            "age": "-1",
            "profiles": {
                "profileInfo": {
                    "profile": {
                        "profileType": "1",
                        "customer": {
                            "gender": "Unknown",
                            "personName": {
                                "givenName": "Thomas",
                                "surname": "Plant"
                            }
                        }
                    }
                }
            }
        },
        {
            "resGuestRph": "2",
            "age": "-1",
            "profiles": {
                "profileInfo": {
                    "profile": {
                        "profileType": "1",
                        "customer": {
                            "gender": "Unknown",
                            "personName": {
                                "givenName": "Julia",
                                "surname": "Plant"
                            }
                        }
                    }
                }
            }
        },
        {
            "resGuestRph": "3",
            "age": "9",
            "profiles": {
                "profileInfo": {
                    "profile": {
                        "profileType": "1",
                        "customer": {
                            "gender": "Unknown",
                            "personName": {
                                "givenName": "Eden",
                                "surname": "Plant"
                            }
                        }
                    }
                }
            }
        },
        {
            "resGuestRph": "4",
            "age": "7",
            "profiles": {
                "profileInfo": {
                    "profile": {
                        "profileType": "1",
                        "customer": {
                            "gender": "Unknown",
                            "personName": {
                                "givenName": "Skye",
                                "surname": "Plant"
                            }
                        }
                    }
                }
            }
        },
        {
            "resGuestRph": "5",
            "age": "5",
            "profiles": {
                "profileInfo": {
                    "profile": {
                        "profileType": "1",
                        "customer": {
                            "gender": "Unknown",
                            "personName": {
                                "givenName": "Imogen",
                                "surname": "Plant"
                            }
                        }
                    }
                }
            }
        }
    ],
    "resGlobalInfo": {
        "hotelReservationIds": {
            "hotelReservationId": [
                {
                    "type": "8",
                    "value": "RPRpCLjpNK",
                    "source": "HBSI",
                    "date": "2020-01-26T11:46:10"
                },
                {
                    "type": "14",
                    "value": "ATD-1735227",
                    "source": "ATD",
                    "date": "2020-01-26T11:46:10"
                },
                {
                    "type": "18",
                    "value": "S3DLUZZWB",
                    "source": "ATD",
                    "date": "2020-01-26T11:46:10"
                }
            ]
        }
    }
}