{
    "roomStays": {
        "roomStay": [
            {
                "roomTypes": [
                    {
                        "roomType": {
                            "roomTypeCode": "CLB2Q",
                            "numberOfUnits": "1",
                            "isRoom": "true"
                        }
                    }
                ],
                "ratePlans": [
                    {
                        "ratePlan": {
                            "ratePlanCode": "WIS15",
                            "ratePlanId": "WIS15",
                            "ratePlanName": "WIS15"
                        }
                    }
                ],
                "roomRates": [
                    {
                        "roomRate": {
                            "numberOfUnits": "1",
                            "effectiveDate": "2020-08-05",
                            "expireDate": "2020-08-08",
                            "roomTypeCode": "CLB2Q",
                            "ratePlanCode": "WIS15",
                            "rates": [
                                {
                                    "rate": {
                                        "effectiveDate": "2020-08-05",
                                        "expireDate": "2020-08-07",
                                        "rateTimeUnit": "Day",
                                        "unitMultiplier": "2",
                                        "base": {
                                            "amountBeforeTax": "441.15",
                                            "amountAfterTax": "496.29",
                                            "currencyCode": "USD"
                                        },
                                        "total": {
                                            "amountBeforeTax": "882.30",
                                            "amountAfterTax": "992.58",
                                            "currencyCode": "USD"
                                        },
                                        "tpaExtensions": [
                                            {}
                                        ]
                                    }
                                },
                                {
                                    "rate": {
                                        "effectiveDate": "2020-08-07",
                                        "expireDate": "2020-08-08",
                                        "rateTimeUnit": "Day",
                                        "unitMultiplier": "1",
                                        "base": {
                                            "amountBeforeTax": "466.65",
                                            "amountAfterTax": "524.98",
                                            "currencyCode": "USD"
                                        },
                                        "total": {
                                            "amountBeforeTax": "466.65",
                                            "amountAfterTax": "524.98",
                                            "currencyCode": "USD"
                                        },
                                        "tpaExtensions": [
                                            {}
                                        ]
                                    }
                                }
                            ]
                        }
                    }
                ],
                "guestCounts": [
                    {
                        "guestCount": {
                            "ageQualifyingCode": null,
                            "age": "11",
                            "count": "1"
                        }
                    },
                    {
                        "guestCount": {
                            "ageQualifyingCode": null,
                            "age": "16",
                            "count": "1"
                        }
                    },
                    {
                        "guestCount": {
                            "ageQualifyingCode": null,
                            "age": "-1",
                            "count": "2"
                        }
                    }
                ],
                "timeSpan": {
                    "start": "2020-08-05",
                    "end": "2020-08-08",
                    "duration": "P3N"
                },
                "depositPayments": null,
                "cancelPenalties": [],
                "total": {
                    "amountBeforeTax": "1348.95",
                    "amountAfterTax": "1517.56",
                    "currencyCode": "USD"
                },
                "basicPropertyInfo": {
                    "hotelCode": "46514",
                    "hotelCityCode": "MCO"
                },
                "serviceRphs": null,
                "resGuestRphs": [
                    {
                        "resGuestRph": {
                            "rph": 1
                        }
                    },
                    {
                        "resGuestRph": {
                            "rph": 2
                        }
                    },
                    {
                        "resGuestRph": {
                            "rph": 3
                        }
                    },
                    {
                        "resGuestRph": {
                            "rph": 4
                        }
                    }
                ]
            }
        ]
    },
    "resGuests": [
        {
            "resGuestRph": "1",
            "age": "-1",
            "profiles": {
                "profileInfo": {
                    "profile": {
                        "profileType": "1",
                        "customer": {
                            "gender": "Unknown",
                            "personName": {
                                "givenName": "Caroline",
                                "surname": "mcintyre"
                            }
                        }
                    }
                }
            }
        },
        {
            "resGuestRph": "2",
            "age": "-1",
            "profiles": {
                "profileInfo": {
                    "profile": {
                        "profileType": "1",
                        "customer": {
                            "gender": "Unknown",
                            "personName": {
                                "givenName": "Daniel",
                                "surname": "mcintyre"
                            }
                        }
                    }
                }
            }
        },
        {
            "resGuestRph": "3",
            "age": "16",
            "profiles": {
                "profileInfo": {
                    "profile": {
                        "profileType": "1",
                        "customer": {
                            "gender": "Unknown",
                            "personName": {
                                "givenName": "Harvey",
                                "surname": "mcintyre"
                            }
                        }
                    }
                }
            }
        },
        {
            "resGuestRph": "4",
            "age": "11",
            "profiles": {
                "profileInfo": {
                    "profile": {
                        "profileType": "1",
                        "customer": {
                            "gender": "Unknown",
                            "personName": {
                                "givenName": "Leo",
                                "surname": "mcintyre"
                            }
                        }
                    }
                }
            }
        }
    ],
    "resGlobalInfo": {
        "hotelReservationIds": {
            "hotelReservationId": [
                {
                    "type": "8",
                    "value": "RPRMxOenUJ",
                    "source": "HBSI",
                    "date": "2020-01-03T16:25:55"
                },
                {
                    "type": "14",
                    "value": "ATD-1716306",
                    "source": "ATD",
                    "date": "2020-01-03T16:25:55"
                },
                {
                    "type": "18",
                    "value": "S3DL5S5SE",
                    "source": "ATD",
                    "date": "2020-01-03T16:25:55"
                }
            ]
        }
    }
}