{
    "roomStays": {
        "roomStay": [
            {
                "roomTypes": [
                    {
                        "roomType": {
                            "roomTypeCode": "TFS2Q",
                            "numberOfUnits": "1",
                            "isRoom": "true"
                        }
                    }
                ],
                "ratePlans": [
                    {
                        "ratePlan": {
                            "ratePlanCode": "WI15L7",
                            "ratePlanId": "WI15L7",
                            "ratePlanName": "WI15L7"
                        }
                    }
                ],
                "roomRates": [
                    {
                        "roomRate": {
                            "numberOfUnits": "1",
                            "effectiveDate": "2020-10-11",
                            "expireDate": "2020-10-18",
                            "roomTypeCode": "TFS2Q",
                            "ratePlanCode": "WI15L7",
                            "rates": [
                                {
                                    "rate": {
                                        "effectiveDate": "2020-10-11",
                                        "expireDate": "2020-10-16",
                                        "rateTimeUnit": "Day",
                                        "unitMultiplier": "5",
                                        "base": {
                                            "amountBeforeTax": "136.26",
                                            "amountAfterTax": "153.30",
                                            "currencyCode": "USD"
                                        },
                                        "total": {
                                            "amountBeforeTax": "681.30",
                                            "amountAfterTax": "766.50",
                                            "currencyCode": "USD"
                                        },
                                        "tpaExtensions": [
                                            {}
                                        ]
                                    }
                                },
                                {
                                    "rate": {
                                        "effectiveDate": "2020-10-16",
                                        "expireDate": "2020-10-18",
                                        "rateTimeUnit": "Day",
                                        "unitMultiplier": "2",
                                        "base": {
                                            "amountBeforeTax": "151.13",
                                            "amountAfterTax": "170.02",
                                            "currencyCode": "USD"
                                        },
                                        "total": {
                                            "amountBeforeTax": "302.26",
                                            "amountAfterTax": "340.04",
                                            "currencyCode": "USD"
                                        },
                                        "tpaExtensions": [
                                            {}
                                        ]
                                    }
                                }
                            ]
                        }
                    }
                ],
                "guestCounts": [
                    {
                        "guestCount": {
                            "ageQualifyingCode": null,
                            "age": "12",
                            "count": "1"
                        }
                    },
                    {
                        "guestCount": {
                            "ageQualifyingCode": null,
                            "age": "16",
                            "count": "1"
                        }
                    },
                    {
                        "guestCount": {
                            "ageQualifyingCode": null,
                            "age": "-1",
                            "count": "1"
                        }
                    }
                ],
                "timeSpan": {
                    "start": "2020-10-11",
                    "end": "2020-10-18",
                    "duration": "P7N"
                },
                "depositPayments": null,
                "cancelPenalties": [],
                "total": {
                    "amountBeforeTax": "983.56",
                    "amountAfterTax": "1106.54",
                    "currencyCode": "USD"
                },
                "basicPropertyInfo": {
                    "hotelCode": "60331",
                    "hotelCityCode": "MCO"
                },
                "serviceRphs": null,
                "resGuestRphs": [
                    {
                        "resGuestRph": {
                            "rph": 1
                        }
                    },
                    {
                        "resGuestRph": {
                            "rph": 2
                        }
                    },
                    {
                        "resGuestRph": {
                            "rph": 3
                        }
                    }
                ]
            },
            {
                "roomTypes": [
                    {
                        "roomType": {
                            "roomTypeCode": "TFS2Q",
                            "numberOfUnits": "1",
                            "isRoom": "true"
                        }
                    }
                ],
                "ratePlans": [
                    {
                        "ratePlan": {
                            "ratePlanCode": "WI15L7",
                            "ratePlanId": "WI15L7",
                            "ratePlanName": "WI15L7"
                        }
                    }
                ],
                "roomRates": [
                    {
                        "roomRate": {
                            "numberOfUnits": "1",
                            "effectiveDate": "2020-10-11",
                            "expireDate": "2020-10-18",
                            "roomTypeCode": "TFS2Q",
                            "ratePlanCode": "WI15L7",
                            "rates": [
                                {
                                    "rate": {
                                        "effectiveDate": "2020-10-11",
                                        "expireDate": "2020-10-16",
                                        "rateTimeUnit": "Day",
                                        "unitMultiplier": "5",
                                        "base": {
                                            "amountBeforeTax": "136.26",
                                            "amountAfterTax": "153.30",
                                            "currencyCode": "USD"
                                        },
                                        "total": {
                                            "amountBeforeTax": "681.30",
                                            "amountAfterTax": "766.50",
                                            "currencyCode": "USD"
                                        },
                                        "tpaExtensions": [
                                            {}
                                        ]
                                    }
                                },
                                {
                                    "rate": {
                                        "effectiveDate": "2020-10-16",
                                        "expireDate": "2020-10-18",
                                        "rateTimeUnit": "Day",
                                        "unitMultiplier": "2",
                                        "base": {
                                            "amountBeforeTax": "151.13",
                                            "amountAfterTax": "170.02",
                                            "currencyCode": "USD"
                                        },
                                        "total": {
                                            "amountBeforeTax": "302.26",
                                            "amountAfterTax": "340.04",
                                            "currencyCode": "USD"
                                        },
                                        "tpaExtensions": [
                                            {}
                                        ]
                                    }
                                }
                            ]
                        }
                    }
                ],
                "guestCounts": [
                    {
                        "guestCount": {
                            "ageQualifyingCode": null,
                            "age": "10",
                            "count": "1"
                        }
                    },
                    {
                        "guestCount": {
                            "ageQualifyingCode": null,
                            "age": "-1",
                            "count": "2"
                        }
                    }
                ],
                "timeSpan": {
                    "start": "2020-10-11",
                    "end": "2020-10-18",
                    "duration": "P7N"
                },
                "depositPayments": null,
                "cancelPenalties": [],
                "total": {
                    "amountBeforeTax": "983.56",
                    "amountAfterTax": "1106.54",
                    "currencyCode": "USD"
                },
                "basicPropertyInfo": {
                    "hotelCode": "60331",
                    "hotelCityCode": "MCO"
                },
                "serviceRphs": null,
                "resGuestRphs": [
                    {
                        "resGuestRph": {
                            "rph": 4
                        }
                    },
                    {
                        "resGuestRph": {
                            "rph": 5
                        }
                    },
                    {
                        "resGuestRph": {
                            "rph": 6
                        }
                    }
                ]
            }
        ]
    },
    "resGuests": [
        {
            "resGuestRph": "1",
            "age": "-1",
            "profiles": {
                "profileInfo": {
                    "profile": {
                        "profileType": "1",
                        "customer": {
                            "gender": "Unknown",
                            "personName": {
                                "givenName": "Susan",
                                "surname": "Sharp"
                            }
                        }
                    }
                }
            }
        },
        {
            "resGuestRph": "2",
            "age": "16",
            "profiles": {
                "profileInfo": {
                    "profile": {
                        "profileType": "1",
                        "customer": {
                            "gender": "Unknown",
                            "personName": {
                                "givenName": "Sam",
                                "surname": "Boyd"
                            }
                        }
                    }
                }
            }
        },
        {
            "resGuestRph": "3",
            "age": "12",
            "profiles": {
                "profileInfo": {
                    "profile": {
                        "profileType": "1",
                        "customer": {
                            "gender": "Unknown",
                            "personName": {
                                "givenName": "Ethan",
                                "surname": "Hutchinson"
                            }
                        }
                    }
                }
            }
        },
        {
            "resGuestRph": "4",
            "age": "-1",
            "profiles": {
                "profileInfo": {
                    "profile": {
                        "profileType": "1",
                        "customer": {
                            "gender": "Unknown",
                            "personName": {
                                "givenName": "K",
                                "surname": "Hutchinson"
                            }
                        }
                    }
                }
            }
        },
        {
            "resGuestRph": "5",
            "age": "-1",
            "profiles": {
                "profileInfo": {
                    "profile": {
                        "profileType": "1",
                        "customer": {
                            "gender": "Unknown",
                            "personName": {
                                "givenName": "Steven",
                                "surname": "Gowans"
                            }
                        }
                    }
                }
            }
        },
        {
            "resGuestRph": "6",
            "age": "10",
            "profiles": {
                "profileInfo": {
                    "profile": {
                        "profileType": "1",
                        "customer": {
                            "gender": "Unknown",
                            "personName": {
                                "givenName": "George",
                                "surname": "Gowans"
                            }
                        }
                    }
                }
            }
        }
    ],
    "resGlobalInfo": {
        "hotelReservationIds": {
            "hotelReservationId": [
                {
                    "type": "8",
                    "value": "CBB0Q8KO0O",
                    "source": "HBSI",
                    "date": "2020-01-09T20:41:11"
                },
                {
                    "type": "14",
                    "value": "ATD-1721284",
                    "source": "ATD",
                    "date": "2020-01-09T20:41:11"
                },
                {
                    "type": "18",
                    "value": "S35L53VMF|S35L53VMX",
                    "source": "ATD",
                    "date": "2020-01-09T20:41:11"
                }
            ]
        }
    }
}