{
    "_RESPONSE": {
        "roomStayReservation": "true",
        "createDateTime": "2020-03-31T11:11:27",
        "creatorId": null,
        "resStatus": "Book",
        "uniqueId": {
            "type": "8",
            "id": "RPRImsp8yD"
        },
        "roomStays": {
            "roomStays": [
                {
                    "roomStay": {
                        "roomTypes": [
                            {
                                "roomType": {
                                    "roomTypeCode": "STD2Q",
                                    "numberOfUnits": "1",
                                    "isRoom": "true"
                                }
                            }
                        ],
                        "ratePlans": [
                            {
                                "ratePlan": {
                                    "ratePlanCode": "WI15L4",
                                    "ratePlanId": "WI15L4",
                                    "ratePlanName": "WI15L4"
                                }
                            }
                        ],
                        "roomRates": [
                            {
                                "roomRate": {
                                    "numberOfUnits": "1",
                                    "effectiveDate": "2020-07-16",
                                    "expireDate": "2020-07-20",
                                    "roomTypeCode": "STD2Q",
                                    "ratePlanCode": "WI15L4",
                                    "rates": [
                                        {
                                            "rate": {
                                                "effectiveDate": "2020-07-16",
                                                "expireDate": "2020-07-17",
                                                "rateTimeUnit": "Day",
                                                "unitMultiplier": "1",
                                                "base": {
                                                    "amountBeforeTax": "362.18",
                                                    "amountAfterTax": "407.45",
                                                    "currencyCode": "USD"
                                                },
                                                "total": {
                                                    "amountBeforeTax": "362.18",
                                                    "amountAfterTax": "407.45",
                                                    "currencyCode": "USD"
                                                },
                                                "tpaExtensions": [
                                                    {}
                                                ]
                                            }
                                        },
                                        {
                                            "rate": {
                                                "effectiveDate": "2020-07-17",
                                                "expireDate": "2020-07-19",
                                                "rateTimeUnit": "Day",
                                                "unitMultiplier": "2",
                                                "base": {
                                                    "amountBeforeTax": "385.14",
                                                    "amountAfterTax": "433.28",
                                                    "currencyCode": "USD"
                                                },
                                                "total": {
                                                    "amountBeforeTax": "770.28",
                                                    "amountAfterTax": "866.56",
                                                    "currencyCode": "USD"
                                                },
                                                "tpaExtensions": [
                                                    {}
                                                ]
                                            }
                                        },
                                        {
                                            "rate": {
                                                "effectiveDate": "2020-07-19",
                                                "expireDate": "2020-07-20",
                                                "rateTimeUnit": "Day",
                                                "unitMultiplier": "1",
                                                "base": {
                                                    "amountBeforeTax": "362.18",
                                                    "amountAfterTax": "407.45",
                                                    "currencyCode": "USD"
                                                },
                                                "total": {
                                                    "amountBeforeTax": "362.18",
                                                    "amountAfterTax": "407.45",
                                                    "currencyCode": "USD"
                                                },
                                                "tpaExtensions": [
                                                    {}
                                                ]
                                            }
                                        }
                                    ]
                                }
                            }
                        ],
                        "guestCounts": [
                            {
                                "guestCount": {
                                    "ageQualifyingCode": null,
                                    "age": "16",
                                    "count": "1"
                                }
                            },
                            {
                                "guestCount": {
                                    "ageQualifyingCode": null,
                                    "age": "-1",
                                    "count": "3"
                                }
                            }
                        ],
                        "timeSpan": {
                            "start": "2020-07-16",
                            "end": "2020-07-20",
                            "duration": "P4N"
                        },
                        "depositPayments": null,
                        "cancelPenalties": [],
                        "total": {
                            "amountBeforeTax": "1494.64",
                            "amountAfterTax": "1681.46",
                            "currencyCode": "USD"
                        },
                        "basicPropertyInfo": {
                            "hotelCode": "46514",
                            "hotelCityCode": "MCO"
                        },
                        "serviceRphs": null
                    }
                }
            ]
        },
        "resGuests": [
            {
                "resGuestRph": "1",
                "age": "-1",
                "profiles": {
                    "profileInfo": {
                        "profile": {
                            "profileType": "1",
                            "customer": {
                                "gender": "Unknown",
                                "personName": {
                                    "givenName": "John",
                                    "surname": "Ayres"
                                }
                            }
                        }
                    }
                }
            },
            {
                "resGuestRph": "2",
                "age": "-1",
                "profiles": {
                    "profileInfo": {
                        "profile": {
                            "profileType": "1",
                            "customer": {
                                "gender": "Unknown",
                                "personName": {
                                    "givenName": "Helen",
                                    "surname": "Ayres"
                                }
                            }
                        }
                    }
                }
            },
            {
                "resGuestRph": "3",
                "age": "-1",
                "profiles": {
                    "profileInfo": {
                        "profile": {
                            "profileType": "1",
                            "customer": {
                                "gender": "Unknown",
                                "personName": {
                                    "givenName": "Chloe",
                                    "surname": "Ayres"
                                }
                            }
                        }
                    }
                }
            },
            {
                "resGuestRph": "4",
                "age": "16",
                "profiles": {
                    "profileInfo": {
                        "profile": {
                            "profileType": "1",
                            "customer": {
                                "gender": "Unknown",
                                "personName": {
                                    "givenName": "Charlotte",
                                    "surname": "Ayres"
                                }
                            }
                        }
                    }
                }
            }
        ],
        "resGlobalInfo": {
            "hotelReservationIds": {
                "hotelReservationId": [
                    {
                        "type": "8",
                        "value": "RPRImsp8yD",
                        "source": "HBSI",
                        "date": "2020-03-31T11:11:27"
                    },
                    {
                        "type": "14",
                        "value": "ATD-1764003",
                        "source": "ATD",
                        "date": "2020-03-31T11:11:27"
                    },
                    {
                        "type": "18",
                        "value": "S3DLURZRA",
                        "source": "ATD",
                        "date": "2020-03-31T11:11:27"
                    }
                ]
            }
        },
        "tpaExtensions": [
            {
                "id": "HBSI",
                "extension": {}
            }
        ]
    }
}